{
  "Libname": "nnet",
  "ObjectType": "Network",
  "Metadata": {
    "NumOfParams": 2601,
    "NumOfLayers": 2
  },
  "Data": [
    {
      "ObjectType": "DenseLayer",
      "Metadata": {
        "InputDim": 128,
        "OutputDim": 20,
        "Activation": "Sigmoid"
      },
      "Data": [
        [
          -0.007053756781142577,
          0.006533087956008377,
          0.014132621091496843,
          -0.0024917138284038733,
          0.0068907188187164745,
          -0.0042552992729668355,
          -0.002145962513837827,
          -0.004839819588965674,
          0.004207906625496597,
          0.007972679619104759,
          -0.004474381668686653,
          -0.0009030709688818968,
          -0.00032054809574644667,
          -0.002556655084089757,
          -0.0014142472911849418,
          0.004961190108896775,
          -0.0011176549717833114,
          -0.008912537179627767,
          -0.00941684755289677,
          0.011019243220622657,
          0.007267578084312454,
          -0.004369839958134389,
          0.007006958315679538,
          -0.002377530165757338,
          -0.008303186091088006,
          -0.003975264251464413,
          0.0028391872100613376,
          0.005833234534058989,
          0.004522199647910024,
          0.0074621960420980325,
          3.278397638721369e-05,
          0.009097269234963639,
          -0.0013289009383213443,
          -0.0015251005594111597,
          -0.006369414650675034,
          0.004715008404192252,
          -0.00516792188908571,
          -0.002514726831749129,
          -0.0037123550686222213,
          0.002655434683103498,
          0.004371859112019487,
          -0.005373518414048367,
          -0.004911079268451366,
          -0.0018146016964374686,
          -0.0011718762095267816,
          -0.004357778812054266,
          0.005008062437916013,
          0.0047044484425617155,
          0.0025780025442599273,
          0.00013077976237092976,
          -0.005229725930313033,
          0.0006471787975287661,
          0.0006033528760697768,
          0.0020034344489401135,
          0.005611122051733173,
          -0.000485206693179061,
          0.001442737039417539,
          -0.003863478200338664,
          -0.00402780230168164,
          0.001567086417531228,
          0.004906516371977324,
          0.0037426175895812815,
          0.0014683112746417715,
          -0.00395596152729797,
          -0.0017485006777617428,
          0.005819440320552538,
          -0.006392689827840011,
          -0.008171943193736837,
          0.005691499896658887,
          0.0011284748936320871,
          0.007245597713184387,
          0.009569975872826235,
          -0.007831982809395233,
          -0.001138661769116597,
          0.004206108942422669,
          0.0015020489973728167,
          0.0004151635885913931,
          0.005019298984663176,
          -0.0035103262603378804,
          -0.003774498625319406,
          -0.0031930827151143456,
          0.004635480433817122,
          -0.004255270185456754,
          0.001977166287110501,
          0.005788291838689136,
          -0.005178008974617338,
          0.0058295589411412555,
          0.0024835985849549266,
          -0.0030036024317267353,
          -2.5471737346274533e-05,
          -0.00015971226168637505,
          0.0015621066157494989,
          -0.013936922502748481,
          0.005293841102090947,
          -0.004354274592771379,
          -0.004696257610880758,
          -0.00010454488690342781,
          0.0049952167483830155,
          -0.0037615744497152535,
          0.0032721337619287384,
          0.004749160280452203,
          0.002881811050920091,
          0.004604711759220621,
          0.0028748248143347223,
          0.0022990820161864264,
          0.007466868051084536,
          0.007999241283825079,
          -0.006797297207426702,
          -9.738688408374337e-05,
          -0.00616026882118406,
          -0.001663720623122635,
          -0.002029057135798058,
          -0.006666575463342483,
          0.0023935347274176674,
          0.0019571415911309353,
          -0.010686182796021852,
          0.0037128702140439133,
          -0.0017059756326198712,
          -0.0014747297073867125,
          2.8673948353390312e-05,
          0.001680683793140025,
          -0.005840623338291482,
          -0.0031933586248139383,
          0.0033845306778424082,
          0.0021809207600911934,
          -0.0022801196873932575,
          0.0054553454332761575,
          -0.0009769220212460757,
          0.003590468034090316
        ],
        [
          0.007428924317683706,
          0.004641860417997058,
          0.0034666437457278876,
          -0.0029223770369049434,
          0.0002294897347073497,
          -0.0008157829849301439,
          -0.012925400023937631,
          0.0038943980696456706,
          -5.268848872598002e-05,
          0.004207160623225029,
          0.0009254495228082634,
          0.00471081511527294,
          -0.0039052651467681664,
          -0.0015973917250911122,
          -0.0007590869223374388,
          0.0019339795153642887,
          -0.009133891650619739,
          -0.0017370295447317926,
          -0.006213111534001464,
          -0.0044369804329401265,
          0.0010648847291187752,
          -0.0020362962107906605,
          0.0033091105673220033,
          -0.006137119985216995,
          0.007794407946786954,
          -0.0018928094478199398,
          -0.0074644876045977734,
          0.0025099678532703546,
          -0.001614201208540369,
          -0.004391962174534606,
          0.010119095376500856,
          -0.002008309454951978,
          -0.004356329427565752,
          0.0018380792581135555,
          -0.0012724157474145459,
          -0.0015557329262435014,
          0.0008529589487127092,
          -0.004972991626471524,
          -0.00022614380597952638,
          -0.002572755697489069,
          -0.0050160500509189715,
          0.009085440422265107,
          -0.0026826113854746506,
          0.0010885621591544263,
          -0.0018009663672320804,
          -0.0029140816395333753,
          -0.00297025739433122,
          0.0035739373474092326,
          -0.006185081886169568,
          -0.0032937595312508812,
          0.0015258806784294973,
          0.0020892015143640467,
          -0.0041206399264524796,
          0.003754859548630266,
          0.0011117602978474837,
          0.00398212670491996,
          0.0005942166049278781,
          -0.00015913745691023627,
          0.0051173172425056715,
          0.003637811771381501,
          -0.0019036752244815276,
          0.0039194585963891315,
          0.0008233744058588087,
          -0.0007540570616804969,
          0.0021933805519138774,
          -0.0015183608354589952,
          0.005830411241980292,
          0.0061265056311310346,
          -8.076961993258193e-05,
          0.0041877881804245525,
          -0.004810303472803607,
          -0.004635938844031871,
          0.00094173934799455,
          0.0018333979217816827,
          -0.007059081105855296,
          -0.0010324899603800742,
          -0.0042592777076733875,
          -0.0022238939240541624,
          0.0006919509516004625,
          -0.00614567690881689,
          -0.011009129136878118,
          0.004166254214329545,
          -0.0018848421829398586,
          0.0013871459662296462,
          0.004678403930359202,
          0.0020440343239390042,
          -0.0028190915109650447,
          0.009032408382009338,
          -0.005230235961157376,
          -0.00029562895139642365,
          0.0027093671535693784,
          -0.006652404733370793,
          -0.004543641006565447,
          0.0037361845708052442,
          0.0017906134812251432,
          0.006435526813045096,
          -0.0009155271340982595,
          -0.00016144089019842528,
          0.0034343975026007506,
          -0.005024610802756923,
          0.004263640532854391,
          -0.010520895252326112,
          0.004551866164813762,
          2.2713533691847915e-05,
          0.00021822940470935093,
          0.0012685708011145667,
          -0.0018593912145405578,
          -0.0008938716514576999,
          -0.001089136212659936,
          -0.002758885365698473,
          0.0009352893331716897,
          -0.006868896879787366,
          0.003228413847929423,
          -0.0010406207153981608,
          0.007096089805361234,
          -0.0011792940200063002,
          0.007565249518545235,
          0.001318817253136074,
          0.005474402580973432,
          -0.0047643341388855735,
          0.0018289879231268458,
          -0.0023664109326147777,
          -0.005307212948045509,
          0.003726132159308437,
          -0.0015591394453293983,
          -0.002644777576205201,
          0.0005065702696805537,
          -0.001526885101137104,
          0.0010311389859537733
        ],
        [
          0.004596831937730564,
          0.0015475515292955847,
          0.002302636441720065,
          0.0009186106412091858,
          -0.0019963976867534592,
          0.003847765778875133,
          0.0012812657359706297,
          0.001549081694954399,
          -0.004743961170516969,
          -8.630293116856122e-06,
          0.007885572094732016,
          0.003362682451540521,
          -0.004827385148728491,
          0.009763038027887326,
          -0.006538650446368677,
          -0.0015460802457206468,
          -0.00411027854894095,
          0.001181983953965574,
          -0.0019665967810147613,
          0.005204018537710686,
          -0.004243443779179514,
          -0.004373144286486483,
          -0.014044145725452999,
          -0.00933919351540053,
          0.0019384997180803016,
          0.0058006741433461635,
          -0.007001088208712655,
          -0.008759134387621832,
          -0.003464647733844075,
          -0.0002982767542475392,
          -0.0010033430920711615,
          0.008813997806067533,
          0.004075902551260591,
          -0.0035174546823250243,
          0.00595220975347597,
          -0.004031626953838738,
          0.0015179599927271493,
          -0.00436180086321264,
          -0.0002585785488612981,
          0.0019066884496855708,
          -0.0025748704372878153,
          -0.0035638465037506496,
          -0.005467080849069704,
          0.000692303970918186,
          0.004361332798162305,
          0.005683089186349384,
          0.006706041483525207,
          0.0021376379069887193,
          -0.007514353973516124,
          -0.004575639368473492,
          -0.01151682743476801,
          0.001653665413133976,
          -0.003962046424077546,
          0.003255409947548875,
          0.007347337470605439,
          0.005010298089912837,
          -0.009078084691904596,
          0.004494391644715231,
          -0.0009706297235760968,
          0.0025063217412335066,
          0.002405402619387617,
          0.005786126614051423,
          -0.005327350005158595,
          -0.0033019804125961174,
          -0.001655068107750552,
          0.0015078980957532672,
          -0.009688343691291,
          5.546942746945821e-05,
          -0.0036555776689314486,
          -0.0015804005093077247,
          0.00834797647987873,
          -0.004613568300531042,
          -0.01324425450974224,
          -0.006232600115115775,
          -0.0017787815366923484,
          -0.0009832079663785371,
          0.004540113691627696,
          0.000484182679273392,
          -0.0021588611327395635,
          -0.0014326705920212402,
          0.0037581119781427033,
          -0.00400468459198484,
          0.014177694891789447,
          0.0014425615098590191,
          -0.002279874572149369,
          0.0031068867720660787,
          -0.004730120664403827,
          -0.0031028674225316655,
          -0.002792400283189967,
          -0.004443095911815293,
          -0.00448543165974008,
          0.0020766627944118887,
          0.008170744795752805,
          -0.002059579763395881,
          -0.0033951266713852604,
          -0.001944791446075723,
          0.006827666701348054,
          -0.00144794750741843,
          -0.0035296367890789593,
          -0.004855825505399047,
          -0.0010041138863985976,
          -0.013847342844645736,
          0.0042676228584333535,
          0.005755358143661867,
          0.0011329732240304693,
          0.0035708200581953137,
          0.0042017578488989125,
          0.00950483272357646,
          0.0013273599228469744,
          0.0027920848997475046,
          -0.0006298462678167669,
          0.002709627672342914,
          0.0013011981841903669,
          -0.0034126044629826796,
          0.0003152814495235581,
          -0.0026335196952950992,
          -0.005992907619500013,
          0.004360878869577496,
          -0.000829146694507797,
          -0.00047602558904790283,
          0.00044586515552513177,
          -0.0010226537830976285,
          0.0036869970584316354,
          0.00012461976733211866,
          -0.005772961792222789,
          0.002686849953224316,
          0.004727334224320704,
          0.0008093964427379769,
          -0.00924754458968608
        ],
        [
          -0.005504527842846129,
          0.005621763854908634,
          0.0007390023350344934,
          0.0016394075664808558,
          0.0023902599881298124,
          0.005199441075438648,
          0.0019017553824295767,
          0.005931925142533399,
          -0.0016784253601647807,
          0.00035632863902392454,
          -0.00577316975025396,
          0.009056937170625213,
          -0.005769862743306463,
          0.003490036622882759,
          -0.0009918463458313067,
          -0.004324962573612769,
          -0.0012683325216617314,
          0.008946675573827629,
          0.001243329548553389,
          0.005001800302677833,
          -0.005455275326038876,
          0.004860705084960096,
          0.00262028141206609,
          0.0010955176902137484,
          6.605515656699646e-05,
          0.0049838151689556775,
          0.0022192045172165697,
          -0.0037096454517723185,
          -0.0019311258914849407,
          -0.004884064381521733,
          -0.004027947127922425,
          0.004644689537844253,
          0.004529593026069082,
          0.00563643943577927,
          -0.0036959040395596315,
          -0.0017292983229611368,
          1.2039216375892556e-05,
          -0.0015762347841110336,
          0.0023257782753089416,
          0.003941846406101538,
          2.3650046501234726e-05,
          7.926255669056908e-05,
          -0.001472715248050951,
          -0.0002937918118206366,
          1.1097498661298864e-05,
          -0.00576492630294245,
          0.0024309300859580592,
          0.0017174630693455207,
          -0.002815520687887944,
          0.0007294736209626418,
          0.0012908571285792354,
          0.010307770315621169,
          0.005491344111591566,
          -0.003720580524543399,
          0.000959195253368071,
          0.00409445612880135,
          0.008252585694092629,
          -0.0001488373255677173,
          -0.004484435314178397,
          -0.000404865087096309,
          -0.008407885831706083,
          -0.004602480166706163,
          0.0027447234446400723,
          0.0019190445184757974,
          -0.009927016496999749,
          -0.0002735621415091502,
          0.0061188263911250125,
          -0.002956791192210051,
          -0.010182977552706998,
          -0.0013607223574761496,
          0.003066898933924164,
          -0.010105322961487312,
          -0.0047309624001783184,
          -0.001231901781695413,
          0.003537969833769119,
          0.0018284039576739188,
          0.0006968285758938938,
          -0.001896091868867691,
          -0.009495913209853303,
          -0.0023577098301442194,
          -0.005831447514352647,
          -0.02093101098728049,
          -0.00041486888702805315,
          -0.001955819370761466,
          0.00251927589402809,
          0.006013992970096047,
          -0.002877003159021666,
          0.008145632411208779,
          0.006212567601123399,
          -0.0030912882793750667,
          0.003158451600796135,
          0.005700471735018838,
          -0.01028496863383307,
          -0.003618331107214601,
          -0.007746631099704709,
          -0.0020275953983551766,
          -0.006772693036422367,
          0.002343898667593737,
          0.01154235051338552,
          0.0048067360507523605,
          -0.006348796715002613,
          -0.0009510812614919405,
          0.0070997671922573705,
          -0.0032997184769671447,
          -0.0026475202913059316,
          -0.005405860505221253,
          -0.0016475353095859334,
          -0.0034215622720317773,
          -0.004080770994915771,
          -0.006459426418365209,
          -0.001092661434848327,
          -0.0035938254632506706,
          -0.004725788469528947,
          -0.0018392463596364178,
          -0.008755656743161599,
          0.00670670682356054,
          0.00713388236148541,
          -0.006683504028753641,
          -0.0010663351289105312,
          0.0030621247127093684,
          0.0010318847537060354,
          -0.001423852092837576,
          -0.0050181056940113,
          0.003589001969060453,
          -0.006226093282985524,
          0.0008568849843740186,
          -0.00501557329734824,
          -0.002009401126606705,
          0.0047950668094887995
        ],
        [
          -0.0059907862460963765,
          0.002683049021261202,
          0.0015943010472659514,
          0.0039714586338377034,
          -0.0016278708623513854,
          -0.0001235985377017322,
          0.0023900382758087436,
          -0.0017925265921717019,
          0.0031096207037010232,
          0.004595434266721551,
          -0.006347712220394354,
          -0.0023435281434826647,
          0.004657635801476337,
          -0.005088286023850775,
          0.0023815446901452775,
          0.0020803056744881847,
          0.002261224337368,
          0.0024732966082918707,
          0.002490897160602381,
          0.013176167792568213,
          -0.002075383361383764,
          -0.0009303117820203296,
          0.0020961438896028237,
          0.001630546944243418,
          -0.002941746704070765,
          -0.0036717308216549427,
          -0.005408656893314636,
          0.0008506848021005745,
          0.0011193012461442572,
          -0.0005259729789923029,
          1.3654799871367859e-05,
          0.0024025146352472247,
          0.003878913713297781,
          0.006055779351958197,
          0.001604132675216991,
          -0.0004547457416793248,
          -0.0002490439511757949,
          -0.003020892747302966,
          0.0017971689201993885,
          -0.0006214208407732713,
          -0.0037811484003544764,
          -0.0040991917101052796,
          -0.00444272609435713,
          0.006614868583776619,
          -0.0009260104008271456,
          0.0003628182545152014,
          -0.006585363358245263,
          -0.0007757572522479207,
          -0.0016729253706907934,
          -0.0027221591611537007,
          -0.0034851351595215465,
          -0.001905484444560791,
          -0.0006689081446023074,
          -0.0032648955021192714,
          0.005674107758004356,
          -0.0026722798129947298,
          -0.001219702063102419,
          -0.0014034785185374006,
          -0.006315278364490109,
          -0.0004003099618314154,
          0.003066768290273371,
          0.0014592181059009971,
          0.009522837459206764,
          0.008121877211988439,
          0.00379484070876524,
          0.013913627858396529,
          -0.0008462236508481928,
          -0.003113868980144965,
          0.0026160530059802845,
          -0.0029160979277197308,
          -0.00026148259679346095,
          0.0020527201472020297,
          -0.004615409576905787,
          -0.001412156773949749,
          0.0008945934443684428,
          0.0022895619948076363,
          0.0023919828183605074,
          -0.0010728202444951701,
          -0.006904315877046145,
          -0.0001128704569051571,
          -0.0019779306850865592,
          -0.005033934630103871,
          -0.0028922126570442176,
          -0.0009372899749400375,
          -0.007989850863212243,
          0.0021081030433020387,
          0.0034685095245818947,
          0.0002525980365829524,
          0.0011873595569872129,
          -0.001871104827465398,
          0.004017405012451279,
          0.0013551591809437859,
          -0.005258306519421829,
          -0.005417078722516876,
          0.0027290703611075467,
          0.005164846388709436,
          -0.00039287247863361094,
          -0.0022019797224611224,
          0.00012663809113592437,
          -0.003391882150198548,
          -0.0055055343267941485,
          0.0005382753174376823,
          -0.00117854139705102,
          0.0013515888826457433,
          0.006786199115991347,
          -0.009829958143318015,
          0.0032622277587705875,
          0.0014961331849363865,
          0.002334300433450851,
          -0.0002669088511211442,
          -0.003895902519410568,
          -0.002355051940444301,
          -0.005502909832433216,
          0.0019028739067550489,
          -0.007326539700309221,
          0.0015359817420893102,
          0.0046924747502978155,
          0.005363536326943156,
          0.00022826765202745881,
          0.00244587041624969,
          -0.003656549754808769,
          0.0032177274906240627,
          0.010598329118715439,
          -0.009801316741154737,
          0.006865263595365203,
          -0.0037737656819320877,
          0.0018291366730337868,
          -0.0011550589625609132,
          -0.004427172720751801
        ],
        [
          0.003370439367733821,
          -0.00028748741010678816,
          0.002113401679164233,
          -0.008051609116154974,
          0.0003834082340226361,
          -0.006266753920241008,
          -0.0015029427772474656,
          0.0015638380937884589,
          0.005227951782939523,
          -0.005170707361625589,
          -0.01198593169233993,
          0.0027335482309421835,
          0.0008428882288957797,
          0.002082377567464958,
          0.006531995556543004,
          0.010294356510368502,
          0.0014696232044386739,
          0.00036892871739634863,
          -0.0010917449417088315,
          0.002122368945266924,
          -0.002208298357113921,
          -0.003040680318701333,
          -0.003093227376241548,
          -0.0007882745389210198,
          0.0005349286947783864,
          -0.00425171528948593,
          -0.010873436121656048,
          0.0004895399252709557,
          0.009095753196547169,
          0.0018648286728186322,
          0.00029355594155638573,
          0.004988386237209039,
          -0.0016142201066751227,
          6.368664871033857e-06,
          -0.0031652098001834356,
          -0.0052794859051082865,
          -1.670511493787844e-05,
          0.0008596656900982896,
          0.0007698471623874407,
          0.0009497480980283766,
          -0.002159720993243653,
          -0.0017663998072249888,
          -0.00041700450588787543,
          0.009566523628500207,
          -0.004777549914765126,
          0.001535446953058001,
          0.002867759836048409,
          -0.005189748380628193,
          0.009413417391122116,
          0.005074825385708861,
          -0.002345024827502292,
          0.0035800400526524476,
          0.004550351045557899,
          -0.002144109521871948,
          0.0019847027200955614,
          0.0038338124785205234,
          -0.005527712856114884,
          -0.0005479014154373312,
          -0.0027366099903255122,
          0.0009352365207808706,
          -0.00574032810647507,
          -0.004582077913436353,
          0.002029183155212545,
          -0.00240236424796726,
          0.001616835282677778,
          -0.0064997244518397385,
          -0.0036304987815699674,
          -0.006424934031382121,
          0.0013349337819023317,
          0.00762824241325847,
          -0.008623338946128156,
          0.004495407644137648,
          -0.012366119682106118,
          0.005490967100224372,
          0.002953250024252329,
          -0.0016658495645924787,
          -0.006861785270415679,
          -0.0018746277295207678,
          -0.0022818005433124025,
          0.00035281335951790264,
          0.00021505333050696591,
          0.002890681922275025,
          -0.005083854383400049,
          -0.0037716222139377925,
          0.0009480777364405002,
          -0.005345866669621564,
          -0.003679837587639085,
          -0.0032184712159918525,
          -0.0008073371205920834,
          -0.001672619312220584,
          0.0003039756745169169,
          0.01236356450860347,
          -0.0060054688671505665,
          -0.0017094264702103216,
          0.0038937609318698036,
          -0.0015293790387397711,
          0.0011542183688388462,
          -0.006639217539088728,
          -0.006075323305392594,
          -0.005018860626407629,
          0.002118556504567685,
          0.00030367338033648856,
          -0.004158920909840623,
          0.0040307705123527994,
          -0.008344592888436546,
          0.0015538846685319578,
          0.004590001605242509,
          -0.002960133025275221,
          -0.003129136280815487,
          0.003746060308341879,
          -0.004533630641133245,
          0.0011844087320062931,
          0.0013058651798077213,
          -0.0006612289557243829,
          -0.006075592599690565,
          -0.0028947651253442386,
          0.0022149247046415813,
          -0.0027428070480097397,
          0.0073332813254485645,
          -0.0022068217923822274,
          0.006119371469147865,
          -0.006636743731066558,
          -0.0007185895939368046,
          0.009461841321549511,
          -0.003010702954041766,
          4.177035085644111e-05,
          0.0032692563767259043,
          -0.0010969163002642233,
          -0.008105696465863099
        ],
        [
          -0.007641814005983858,
          0.011187423637278014,
          0.007901861526929305,
          0.0018053365129698188,
          -0.002764655099462051,
          0.0015557730019714216,
          -0.004829892037853157,
          -0.00699119727212511,
          -0.00327918351940799,
          -0.004230033454612871,
          -0.0010394254045943305,
          -0.00044988899103084264,
          -0.003073781809482206,
          0.002997355428829758,
          0.00031669274128394794,
          -0.0009545114154128504,
          0.004201171381973651,
          0.00031669035582638074,
          -0.0015163478155975434,
          0.0019928863131243885,
          0.006185547212548796,
          -0.003656482898233851,
          0.0034898387831414986,
          0.002943331480670578,
          -0.006055509644559532,
          0.006855563635595089,
          0.0069240889033287826,
          0.004985723295504247,
          -0.0026054591434885154,
          0.0068172686077894815,
          -0.0004385412130705832,
          0.007207680260453802,
          -0.002931386626224363,
          -0.003132384515005803,
          -0.000301325917010305,
          0.00034972812550649256,
          -0.004135001617023435,
          -0.0031574474328775483,
          -0.004254135813086912,
          -0.00047958868462877,
          -0.004396963555763443,
          0.0003001733436678415,
          -0.005881817663431464,
          -0.0016689786222551508,
          0.0038311399641330285,
          -0.005591373486204651,
          -0.004783542880671043,
          -0.0008729571738086347,
          0.011398120713320248,
          0.003119698531360242,
          0.004437887091857957,
          -0.009290027781513463,
          -0.002202608738400482,
          -0.0007565412105360406,
          -0.00023683252859713885,
          -0.002491596591432864,
          0.0006301684647509801,
          0.00207855431803061,
          -0.0037754440734355564,
          -0.0019346050030534833,
          -0.004162506680609167,
          0.0032896069032510708,
          0.003324770044699262,
          -0.008365440953394294,
          0.0016143202514411847,
          -0.003979979218012507,
          0.007531120956007095,
          -0.0012703865787121024,
          0.0027203462734209896,
          0.002666357097847508,
          -4.95274804161924e-05,
          -0.0012471890782525476,
          -0.0014423681817538252,
          0.0011417371068291322,
          -0.0012901520367312193,
          0.0009835767084460708,
          -0.0029040758203036413,
          0.002881181570309869,
          -0.004397882775870107,
          0.006242429385781286,
          0.0035317174319536666,
          0.0021295677854744686,
          -4.607941129457997e-05,
          0.0025176464895179,
          0.011713823938136584,
          -0.0054259015025691654,
          -0.0003777002582336247,
          0.001800615442521186,
          -0.007074497531255961,
          0.005975500171936515,
          -0.0007799457942342704,
          -0.003941696376557054,
          0.00397111720739761,
          -0.0022290881851639707,
          0.0004001523029576578,
          -0.007361184207224624,
          -0.0010759666253578413,
          0.007843794731528693,
          9.656437210314438e-05,
          -0.0018909052001178741,
          0.006952555191187024,
          -0.0014759421833109732,
          0.002403047558420467,
          -0.0006333591325378934,
          0.0007100889521250559,
          0.0044548762884963474,
          -0.006535563859425478,
          0.010366113501582891,
          -0.002965096106940478,
          0.006394001295645788,
          0.003302316433650773,
          -0.0017630029887067463,
          0.004948763588111166,
          -0.00015322296659111968,
          0.0009218859528218796,
          -0.004100187432854102,
          -0.0024533939453239427,
          0.0022755070511800445,
          0.0007064291229545458,
          0.00020371806823543627,
          0.0008744283974898496,
          -0.0085672673555039,
          0.0004165351131074219,
          0.0031182379701087514,
          -0.00229081798890543,
          0.005305603217774675,
          0.005321393803422588,
          0.0031195591131670136,
          0.005078804887331637
        ],
        [
          -0.006141205678205421,
          0.00537564044775938,
          -0.0010523638989400157,
          0.008361386384168381,
          0.0013278204554459494,
          0.001527650869700887,
          -0.001133044558080995,
          -0.011872645365105749,
          0.0015050993291501548,
          0.003775513840659709,
          0.00014740400866873076,
          -0.0041822062475112935,
          -0.004307474079550481,
          0.003370404380722129,
          0.00046704705738365106,
          0.003575514996260217,
          -6.555185128714029e-05,
          -0.004870844178526672,
          0.0010446904471873414,
          -0.0050749644084646115,
          0.010659728550264258,
          0.0019344572860142011,
          0.002144859058086814,
          0.0027607221037478607,
          0.004071688400563406,
          -0.0016480716935109846,
          -0.005721122876529324,
          -0.006714643519438382,
          -0.0030825260682132752,
          0.004916293923751196,
          -0.005033058634731549,
          0.0020203447208371533,
          0.0015643837161715762,
          -0.0020737502290619015,
          0.0035070771385232596,
          -0.0004998653057100968,
          0.0025136890107851926,
          -0.003804258302299179,
          -0.004403476058838176,
          -0.0014200752697665357,
          0.002308602937068073,
          0.0013859764763237748,
          -0.0011121342998123794,
          0.00372691905710688,
          0.002189790081259083,
          0.004629812855912642,
          -0.006104800426317844,
          0.0005819908600526975,
          -0.0017717436432173818,
          -0.004013378225195253,
          0.0006527034918926065,
          -0.008128658004486708,
          -0.0008845652411506317,
          -0.003110116709467956,
          -0.0023768115586519254,
          -0.004729569490221193,
          -0.004482372232531258,
          0.0046243690291814235,
          -0.005130085358786646,
          0.008145613059559551,
          0.00566963792746771,
          0.0032228283073342527,
          0.0024352555017010343,
          -0.0068888557841060875,
          -0.0006546678718676478,
          0.007789192853431662,
          -0.0024196811755937716,
          0.0001776910360288,
          -0.0001981332199180705,
          0.005012085180629165,
          -0.013979239437997715,
          0.009762861006827649,
          -0.0034085881914240126,
          -0.002904085915759107,
          -0.0023120826623495593,
          -0.010436294260363124,
          0.006380550438829709,
          -0.003582557843817094,
          -0.0036119573592915937,
          0.001081327255147468,
          0.002398122070619414,
          0.001828368728151857,
          0.0003235071713239544,
          -0.005101066422127053,
          -0.001801038484768026,
          -0.007036703692312386,
          0.0018179918554877608,
          0.0030846080506551545,
          0.0056301927836854716,
          0.0017180539860530177,
          0.0017917548235857966,
          0.0066084939036529945,
          0.003652455958069735,
          0.00817019045025005,
          -0.0004028684950275931,
          -0.0016206048656370706,
          -0.004373300029999117,
          0.0007213569172732216,
          -0.0008319360187044751,
          -0.0017176441490394264,
          0.0018472578830175175,
          0.003981025390423573,
          0.0010375567642227968,
          -0.003381380779852573,
          -0.003956041913235647,
          -0.005636262365684354,
          -0.0034794644861697492,
          -0.002202785874671185,
          0.0024632275703165996,
          0.006961364334841084,
          0.004313845477151409,
          0.004940429236056631,
          0.002219207263219987,
          -0.0010534124787975727,
          0.00014820540067164755,
          -0.0018748006087050935,
          0.001999837620226155,
          -0.0019600379577002546,
          -0.010746878619778076,
          -0.001539111956386738,
          0.0021516348348150725,
          -0.0022235014905172793,
          0.004215468895639442,
          -0.00648818609187673,
          -0.006756341876786826,
          -0.0006817953550607009,
          -0.005523497621018237,
          0.005207519684477721,
          -0.00708612770186049
        ],
        [
          0.0025773699468143794,
          0.005021807241728954,
          -0.001703443786327562,
          -0.0053779202370159915,
          -0.010483950086505074,
          -0.000371017643383432,
          0.0028735843634602586,
          -0.0011301158067921686,
          0.005109133070631763,
          0.002385178007545724,
          -0.0022333762413722785,
          -0.0031638010631585166,
          -0.005152649433912597,
          -0.0043305249921519184,
          0.0022964538588629447,
          0.0011148634985145628,
          0.00887213494097684,
          0.0015592907765232726,
          0.004548497030356987,
          0.002245956514128674,
          0.00023521169956625246,
          -0.003493784559350446,
          0.0007521390685321686,
          0.00213780282428516,
          0.005881858277349393,
          -0.006290247733094621,
          -0.003929012317455061,
          -0.004761737477322644,
          -0.00806867843702694,
          -0.00033998775925740975,
          0.0008288889462985264,
          0.001873551163381854,
          -0.0015477748734663017,
          -0.008897808633825114,
          0.00015980171045020203,
          -0.0007786983869949946,
          -0.0028130310214479455,
          0.0004435337448925664,
          0.0001847957115184221,
          0.007105519254029087,
          0.004089376498368205,
          0.002442692677840131,
          -0.001422066048677612,
          0.0009382636230127005,
          0.001471529636825198,
          0.0010474529191952864,
          0.005034591458839898,
          -0.008543544788533933,
          -0.001313194323606897,
          -0.00014185820502856826,
          0.00525480376613664,
          0.0007554529048923714,
          0.0034449024192434044,
          0.0011385254891385578,
          -0.0008742680778770506,
          0.0016563837132254665,
          -0.0017474519249128105,
          -0.0038310748370076423,
          -0.006913245945125218,
          -0.007196394958556838,
          -0.0005293128587104171,
          0.005788487672809754,
          -0.004790875044885313,
          -0.007625804973260518,
          -0.0014104713929277558,
          -0.006572604839340895,
          4.9876477064836794e-05,
          8.077364375039898e-05,
          0.0023546537937393806,
          -0.0018289863039101066,
          0.004595488843447385,
          0.002704553019797362,
          0.006576168664285089,
          0.0027200298617846503,
          0.0002448459594522585,
          -0.012375926291197322,
          -0.003147392950995391,
          0.0009638992363441888,
          -0.006484985655829766,
          -0.007251930603033729,
          -0.0003650030863071266,
          -0.001189725194553975,
          -0.00022670562247539624,
          -0.003153415229090351,
          -0.0033658965647607995,
          -0.004044818610366379,
          0.003922946837754431,
          0.0028139153589357285,
          0.002281395182364921,
          0.006949541071583679,
          -0.0003104687816890597,
          -0.0032348737694634943,
          0.001626455757493983,
          0.002584437685726923,
          0.0031038096862220383,
          0.001390497686636356,
          -0.002858890367872332,
          -0.00782428263702187,
          -3.8091372841866076e-05,
          -0.008704361992897192,
          0.00018096709465123694,
          0.002672540453431008,
          0.0034587138971047472,
          -0.0011521235520008427,
          -0.006127749149550554,
          0.00562390931814332,
          -0.0014912203357584557,
          -0.002579932078167965,
          -0.008362734269987612,
          0.006793733524732367,
          -0.006969384501664641,
          0.005738399542908981,
          -0.0027609362958924267,
          -0.00043792090025790355,
          -0.0012529601457175713,
          0.0008675146110230331,
          -0.0031146596472146023,
          0.0053826090988073555,
          -0.009208977516784088,
          0.00040281737508589597,
          -0.005450500642314594,
          -0.0031648495028845525,
          -0.0014635672025387835,
          0.0011244661308267207,
          0.004240699841739045,
          0.003702100604469388,
          0.0007347612103226371,
          -0.006421318462370956,
          -0.0032774002244444467
        ],
        [
          0.008543209873704383,
          -0.0035841624043610365,
          0.00016799817335333214,
          0.0056080384936442905,
          -0.006888718172272498,
          -0.005769135903172491,
          0.0008853108206210173,
          3.6203956903559055e-05,
          0.007753543027018143,
          0.0014433660728697423,
          -0.004653421064824391,
          0.0018610740196556847,
          0.0023229780502402072,
          -0.00230933629405009,
          -0.002095249911961058,
          -0.004739141490903479,
          -0.003866371534633467,
          -0.0005138677160197208,
          0.005811270883805741,
          0.0076723127661343805,
          0.0032855852258582606,
          -0.0013576319962051028,
          -0.0015745995335510413,
          -0.012350598500271743,
          0.006179408727814085,
          0.0037777641391550727,
          -0.0023759687013142398,
          0.010043891839968967,
          0.0050391407753224,
          -0.0025274385308163,
          0.001386753455838222,
          0.0003157218477396463,
          0.008059714558782368,
          -0.002036075524951066,
          0.0014542463743325907,
          -0.01244343038746301,
          -0.00041037461100409457,
          0.008674672940208157,
          0.008724418118989176,
          0.0019084958727873902,
          9.288173781918602e-05,
          0.0077271054808062045,
          -0.0020462031178070075,
          -0.00349334062549011,
          0.0042442066831524785,
          -0.004838713032582983,
          -0.0014088107380035133,
          -0.008840405411274422,
          0.0010871320945447158,
          0.003822581504985478,
          0.005124131446967132,
          -0.0067667753524965225,
          -0.0018758296541031717,
          0.0028165951700530787,
          0.005518886383173813,
          -0.008054276918651751,
          0.004072164342313023,
          -0.004180764469603669,
          -0.003051945650630379,
          0.006540260940842087,
          -0.0019624294855027633,
          0.001076263440074898,
          -0.00033053506619753006,
          0.0007363288182702707,
          -0.005217852551723461,
          0.00022513090808385714,
          0.007025999915306096,
          -0.003004913150691004,
          -0.0056675012162902124,
          0.005671571506945211,
          -0.0004596226063408643,
          -0.0014991377610328526,
          -0.0012003410910293181,
          -0.0011189211588906425,
          -0.00027758697499395674,
          -0.006550458393968322,
          0.001987765150994982,
          0.00521772235723727,
          -0.0034768461389508847,
          -0.00015024938642512096,
          0.002216561266675364,
          -0.004296213612861981,
          -0.00014335756514733525,
          0.0019461172010501872,
          0.0013179453435268064,
          0.0006224665010154862,
          -0.0008304600019796975,
          0.0006802222062169644,
          -0.008369773458271609,
          -0.0004633890104294256,
          -0.007228422900742334,
          -0.010416148095429243,
          0.0010062876342739804,
          -0.003421529000097524,
          0.008381345365300405,
          -0.006530321508818043,
          0.0062583163526968915,
          -0.013055953416903012,
          -0.0011217348485042964,
          0.003377183863298391,
          0.00040041915150089153,
          0.0010086982083467172,
          -0.0031668202526971222,
          -0.002641354460640641,
          -0.0038281377193876906,
          0.0003788988550905501,
          -0.007482090345275143,
          0.0022979072263272595,
          0.0029186086375964045,
          -0.0016682102919919218,
          0.0038033528443934808,
          -0.0016446458691125583,
          0.002581982061699411,
          0.004196534596511651,
          -0.0013773979706134443,
          -0.0029396006472055766,
          -0.004442490643540031,
          0.008855766378593819,
          -0.003284760735332417,
          -0.0016515723549823803,
          -0.00035810482395519963,
          0.004166364768691739,
          0.005139977667427065,
          0.0021042731593984465,
          -0.009319317457304212,
          -0.0032109818645331208,
          -0.0024540347724979978,
          0.0051220787088223935,
          -0.0021285084011002696
        ],
        [
          0.008667470484878754,
          -0.005536235428424064,
          0.003993013831080283,
          -0.003989106041751898,
          -0.0001600285583802042,
          0.0038557517538287626,
          0.00012047142765104634,
          -0.00019756265656368567,
          0.0038403364061015523,
          0.008320558067022246,
          -0.0014942278450072375,
          0.00408427002622036,
          0.003420073431551691,
          -0.013586744666198157,
          -0.0006996210603220199,
          -0.009965199383976175,
          -0.0025325059279604507,
          -0.006708449458577528,
          -0.00752353324750815,
          -0.0024430943451274217,
          -0.0030122586026723147,
          0.011046911286377784,
          0.0032150040741396727,
          -0.0027283047827380935,
          -0.0005329193348857824,
          -0.003517084786242517,
          -0.0005273107056169404,
          -0.0016647208197209033,
          -0.008267388771093863,
          0.0008038066447988978,
          0.001465535607011362,
          -0.0034871643258807517,
          0.002604425906495009,
          -0.004108218180116451,
          -0.0042146439528160775,
          -0.0008678931887269801,
          -0.003979397439658975,
          -0.001475891691562316,
          -0.005256458980097257,
          -0.008650550546252266,
          0.0006423315919071942,
          -0.0076779643455950385,
          -0.004697610331082229,
          -0.003872205462109578,
          0.002245642039517096,
          -0.007504812652637174,
          -0.0030940306793340753,
          0.0035434123509022605,
          -0.003745521706759138,
          0.003839656127393527,
          0.004679040692175243,
          -0.0010943253601279237,
          -0.0018120501063362293,
          -0.0005739035326845089,
          -0.0018446074395592088,
          -0.005318882020871655,
          -0.0047556251124458975,
          0.006453283620100312,
          0.000856201165433119,
          -0.001992412979724178,
          0.0013011793377081995,
          -0.004214072451129472,
          -0.004738852597468432,
          -0.0033083317661284643,
          0.0037117269985317333,
          0.002887711428868262,
          -0.0023914002202812187,
          0.003227683759693104,
          0.004425976953615989,
          0.003893764706886166,
          0.0015413665148515643,
          -0.0029138325065157372,
          -0.009413756994614433,
          -0.005692558272254476,
          -0.005742602345775789,
          0.0071422117286443825,
          0.005775430040924212,
          0.005231949344882304,
          -9.080257247844897e-05,
          -0.00031894355707501066,
          0.0040559867639649826,
          0.0009078495131539588,
          0.006498734710057453,
          0.005646328816486479,
          0.0042598001194645435,
          -0.0029070738278463714,
          0.0019407537981513472,
          0.004011404657075003,
          -0.0007381525790754002,
          0.0014940565460746032,
          0.010188960863764529,
          0.008240207472335748,
          0.00042662410055328967,
          0.006992425658522143,
          -0.008732245666786669,
          -0.0005908933003316823,
          0.003813821176768591,
          0.00523709779957565,
          0.0013194579846197132,
          -0.005637404898704925,
          0.004028968623763388,
          -0.0010132392895833573,
          -0.01018500009188936,
          -0.00487591171798134,
          0.0009695503941980451,
          -0.0008974785529675066,
          -0.0038702405641473183,
          0.0020939300094953575,
          0.0065067044359829965,
          0.00045036284005284233,
          -0.0018774764642943138,
          -0.006210638778357627,
          0.0054708433805330785,
          -0.003058896823706164,
          -0.006444905934291159,
          -0.002992477436870404,
          0.006338645193648231,
          0.003998394250312657,
          0.0005853393686786165,
          0.0015453028656060195,
          -0.0024861492220255668,
          -0.0010046675042099935,
          0.003098255647389899,
          0.0016117585210888355,
          -0.003170753634070183,
          -0.009739738369684642,
          -0.0033611775222412875,
          -0.004830466212183079,
          -0.001463641269906009
        ],
        [
          -0.002788230903495658,
          -0.008329476667060173,
          0.003877391842828972,
          0.0015706958550060863,
          -0.0037973839541536464,
          0.007136303545192056,
          0.0015680497885374892,
          -0.0022868331947378333,
          0.0002597862051752944,
          -0.003369269866609718,
          0.005450521960677721,
          -0.0012088453534787344,
          -0.001258217725494425,
          -0.0018258461448380382,
          -0.0034735664594659856,
          0.0002841476744452089,
          0.0005903428213427929,
          0.001227205752777538,
          0.0012833918259438021,
          -0.001955134416258082,
          -0.0028713025616010283,
          0.005453266493353756,
          -0.003471106332428882,
          -0.003091947198520424,
          -0.011474803114231187,
          -0.0021437191805665796,
          0.0030060412587118272,
          -0.003842562064112795,
          0.0050350014112735455,
          -0.0010469635694084702,
          0.006845268435397116,
          -0.007768870344752271,
          -0.00069978812233321,
          0.0031072487691858313,
          0.0029805963125894503,
          0.0067515359558614,
          -0.001023362935024652,
          -0.007074099280351533,
          -0.0002885788804829047,
          0.004962422443218197,
          -0.008777540844497491,
          -0.0014122280592437286,
          0.0024120278248982996,
          0.004552517376475852,
          0.006350201226889673,
          -0.008032879340489808,
          -0.0016051293748659697,
          0.004540074246115323,
          -0.0019865183595280914,
          0.005342010398733883,
          -0.0018501193684666885,
          0.00874008041274864,
          0.007407594460274033,
          0.0008073473815524185,
          -0.0017913718644762613,
          0.0012566347914781948,
          -0.004599627083149507,
          0.007760802518225335,
          0.009149610635840634,
          0.0016041497465901346,
          4.033865465130526e-05,
          0.002951032324841403,
          -0.0018794996447539102,
          -0.001708121449781546,
          -0.0029495870396864746,
          0.0058611479316465955,
          -0.001925150826436358,
          -0.00035943195117201085,
          0.0009635338019872954,
          -0.0013424740580917248,
          -0.0025169578457826277,
          0.0039856863467025196,
          0.005472031013541772,
          0.007546851454569702,
          0.0009963072132216253,
          -0.0010144982994821671,
          0.003688362668230723,
          0.007278343440899904,
          -0.003817805882929694,
          -0.008369482436573237,
          0.007425908214292385,
          -0.0020076852443939044,
          0.00022107497277142497,
          0.0032719599532190797,
          0.010318962678232744,
          -0.010594752729563317,
          0.002952479837574764,
          -0.005599696508090006,
          -0.0015057660262589871,
          -0.001191802808505212,
          0.0006763351116229421,
          -0.0009267006660914549,
          0.005927198148088019,
          0.0047977490195563735,
          -0.0014410240183231093,
          0.0076427096385484295,
          -0.0007343444899269481,
          0.00033335920090477505,
          -0.000709196706540672,
          -0.0017521560314272128,
          -0.007948672441362001,
          0.0022381890200047073,
          -0.002997977287308485,
          0.0008223075975516223,
          -0.003276400087927281,
          0.002274820032392642,
          0.004018205803397646,
          0.002134516227838224,
          0.007686669979237058,
          0.007650515959133488,
          -0.0011717134632200817,
          -0.002277957230946864,
          0.004411357008221411,
          0.0005954946594704121,
          9.8459549746205e-05,
          -0.001942047619235813,
          0.003315304560739504,
          -0.0026536940188443174,
          0.0008197694645244846,
          -0.007816576423916668,
          0.004410679117409295,
          0.0019250130114419838,
          0.0008678812257162273,
          -0.004062688666852135,
          0.0034463359860007906,
          -0.0019955607527578547,
          0.012153807445091234,
          -0.0006692081664859704,
          0.0023185211251292893
        ],
        [
          -0.005164688971166465,
          -0.007794380826450395,
          -0.002561575329336131,
          -0.004058746451383224,
          0.0012641155226468493,
          -0.0031256133117364563,
          0.00801233875257681,
          -0.0030379461502139083,
          -0.002420715320062629,
          -0.00513010658267653,
          0.008122536818275405,
          0.0009582378849137354,
          -0.01047298488052212,
          0.003380910783005088,
          -0.0025201988386186593,
          -0.001919649594214437,
          0.0037084716877358926,
          -0.003241687631297162,
          0.008283727572001881,
          -0.00012026465699290864,
          0.0020296312531713203,
          0.004692929209698209,
          -0.00025223618362451097,
          0.002890573036125959,
          -0.0015023601719261473,
          0.0034213011454594096,
          -0.0014932924466845273,
          0.002975277007870987,
          -0.002075893839370102,
          0.0009614548695766806,
          0.003376926128584611,
          -0.010999894355526554,
          0.0003927727059350919,
          -0.0005557361530423298,
          0.006141380887710478,
          -0.0027648209747447973,
          0.0018641961098614887,
          0.0037213822418231653,
          -0.0028799375941628725,
          0.003253176183458347,
          -0.0062789026083712165,
          -0.0037305262581964725,
          -0.004342029152370071,
          -4.840853650217754e-05,
          0.0061874820987031735,
          0.00022794149173754826,
          -0.0014886578679510459,
          -0.000977576764237655,
          0.0012388454397101642,
          -0.0003325233670835955,
          0.0012254225970180154,
          -0.0015697516855917926,
          0.0056243251699018915,
          0.006216575685723705,
          0.006142200956083602,
          0.0011929588736499543,
          0.007402288496761281,
          0.003916921911227444,
          0.005081288999091539,
          -0.009076237576856907,
          0.007523914261322836,
          0.004951195307986524,
          0.002314773221752372,
          -0.002685722714143313,
          -0.0016000327242153543,
          0.002962067459939421,
          0.00036821746038186783,
          0.009084874858928541,
          0.0004702320153882749,
          0.00011774043480617915,
          -0.0011952326409450985,
          -0.008184782704526956,
          0.006082662080627738,
          -0.0002367301056337162,
          0.00031063470168614366,
          0.002223312135716738,
          -0.00013951985972665548,
          0.0007254492279270199,
          -0.00175489783921096,
          0.0030087279326836617,
          0.008308170563867779,
          0.0055260988257477125,
          3.1185179268655944e-05,
          -0.002193404529750358,
          -0.0012177714904041887,
          0.0004908698432155254,
          0.0030012937253486045,
          0.004561731391152336,
          -0.004423006439260648,
          0.003828542380364094,
          -0.002991447647559519,
          0.0020897954462205585,
          -0.007060368396757829,
          0.0019156535094164977,
          -0.008361682160781059,
          0.0003796739533087702,
          0.0015131990455297824,
          -0.0013153654336004227,
          -0.0007427578517078559,
          0.007809108270311061,
          -0.005009041075050202,
          -0.004931030212305213,
          0.00545150371754588,
          0.009093738977448989,
          -0.001689388728791816,
          -0.0003158023718905235,
          -0.0027362274901992934,
          -0.007415261471647634,
          0.002300736138445599,
          -0.0009097606950386793,
          0.0009198689822099749,
          0.009231161857799,
          -0.007122415850567307,
          -0.008963818031260853,
          0.0037385554366885397,
          0.0035459561167556614,
          2.60092241135802e-05,
          0.000576419276897327,
          0.0014323312732112158,
          0.0007781285804120958,
          -0.003503734442672236,
          -0.0008198169920220448,
          0.002860442676931349,
          0.00421527035257206,
          -0.005475079689070842,
          0.005589339656500005,
          0.0004316748970947091,
          -0.003542247396249798,
          -0.0017515599941708227
        ],
        [
          0.010156977008729438,
          8.706473253897336e-05,
          0.0040398157987923565,
          0.0050819282958765154,
          -0.002301640194372254,
          0.0007100644816141481,
          -0.00246290910202039,
          -0.002219510763961636,
          -0.0015930796308224573,
          -0.009115192615378832,
          0.004944081966378124,
          0.0012275246007815229,
          -0.0014820276557299338,
          0.0014565312296534565,
          -0.004396544049593716,
          -0.0030058765723418976,
          0.0001411968677236634,
          0.0071547529173411565,
          -0.0033600191635956766,
          5.100295462769807e-05,
          -0.004177448559126319,
          -0.00477243841000098,
          -0.002662276973138938,
          0.0033361141796319554,
          -0.0039011715293491432,
          -0.006660692323436786,
          0.0015178672411903,
          -0.0002598626039726705,
          -0.00316506713392999,
          0.007456034708192338,
          0.00887306207916356,
          -0.0019186541836602087,
          0.0062782634140051,
          -0.001001038831055016,
          0.004498547347693071,
          0.005861370860061148,
          0.005063274771201128,
          0.012778826212561992,
          -0.00316787272355595,
          0.007227139838157684,
          0.0006388453925835914,
          -0.003256338074589238,
          0.0009133230914518198,
          -0.008263204758120356,
          0.0005868011771784637,
          -0.004871195948326702,
          0.00476347693035616,
          -0.0014183037012579843,
          0.0038794612308471203,
          -0.0020326661629090953,
          0.003102372738299134,
          -0.00286391487796044,
          -0.0020101727066202894,
          -0.0019574395844261707,
          -0.0006631683763303488,
          -0.00042888841208430666,
          -0.00531666357511368,
          -0.0032998850976739776,
          -0.004862446314539268,
          -0.006275068011693405,
          0.0008054383697859585,
          -0.002191507127355769,
          0.005642778090430477,
          -0.0057388590173034675,
          0.006633182838741815,
          -0.003740203696626488,
          0.003571701041860581,
          0.00019871961178886732,
          -0.0006989769452572292,
          -0.003675366449494215,
          -0.0028586256132408124,
          0.0015689282363338293,
          -0.0008565322893902127,
          0.003317523913107144,
          -0.003158074911505764,
          -0.00237137007990771,
          -0.0015990531571133768,
          -0.002215244268056559,
          -0.00015524722050441845,
          -0.003680421748551773,
          0.000349760990159233,
          0.00625530937928525,
          -0.0001705610386484923,
          0.0008837946942216971,
          0.001060957678077761,
          -0.008890633007590947,
          0.002268381342262145,
          -0.003969413349461233,
          0.0022940753135423696,
          0.0037106492495807422,
          -0.003724801812836882,
          0.00019718600854899486,
          0.005996709943589999,
          -0.001369486973948591,
          -0.003399771884215772,
          -0.00017048044233339111,
          -0.002520925084205364,
          0.0004882931097823375,
          -0.003986811405826712,
          -0.0038601618076051767,
          -0.0036099124895863943,
          -0.0025614121250390515,
          -0.00581696541545173,
          -0.0008542662974621347,
          -0.0012314240347447447,
          -0.0002372019656491968,
          -0.0016281918382992618,
          -0.010677606244963183,
          -0.006459463693105212,
          -0.005914480477778026,
          -0.001726388155184567,
          0.003965051478383647,
          -0.0025873363352691076,
          -0.00012313811619839266,
          -0.007177321099445335,
          -0.0022806638639751363,
          0.001461205204704575,
          0.006034416893313202,
          -0.0025961917578557927,
          0.009524727350014488,
          -0.002093286918615861,
          -0.00125232330741053,
          0.002320331662066696,
          0.003706601879338841,
          -0.00021562737007695386,
          -0.0010932792196450764,
          0.004324941143219798,
          0.003069419862557822,
          -0.0026612305041845874
        ],
        [
          -0.0030177769512291387,
          -0.008765205134120374,
          -0.0045091793821242085,
          0.0038981099084914907,
          -0.002315203047451024,
          -0.007599172432965054,
          -0.0023850748867092443,
          -0.0029995206744827065,
          -0.007967392234871909,
          -0.0022331974929073344,
          -0.005814709257175471,
          -0.006450925708960792,
          -0.00023825888048936434,
          -0.0018437641128472718,
          0.002880072376464041,
          0.00941177463876094,
          -0.009462554113897462,
          -0.0047374396530508395,
          0.0026902559152626976,
          0.002930861027493202,
          -0.0018847342875663246,
          0.0058701271408209835,
          0.0008836124140123632,
          0.004325982385338658,
          -0.0005419921869908397,
          -0.002914129594862199,
          0.008314104891527785,
          -0.007401002641241184,
          -0.006079623437721368,
          -0.007536758519704412,
          0.0025923450922816192,
          -0.001341615780975305,
          0.001928078334268298,
          0.004149497211806993,
          0.0017626755489811557,
          -0.00018981417042603687,
          0.003042492576223494,
          -0.00812968233312989,
          0.002194648939321914,
          -0.0063003818895304275,
          0.009283740583423631,
          0.0018366945828860153,
          -0.008762859597879747,
          -0.005983177617456887,
          0.004513654319565073,
          -0.0030784145544674453,
          -0.0021282636739697793,
          0.00681751941289467,
          -0.0006327279569586937,
          -0.004143681306868546,
          -0.005629075741677647,
          0.0002705554878680777,
          -0.008588901127561265,
          0.0019805742728083164,
          0.003125225295688532,
          -0.0008676586627139034,
          -0.0007472206795331193,
          0.0035227798636355005,
          0.007994964763103903,
          -0.005088137843926232,
          -0.0014030857855323925,
          0.008038319439878977,
          0.006046630020408227,
          -0.0028832591455256245,
          0.004551987254741072,
          -0.00806011837121821,
          0.0013800750076313909,
          -0.0006996732230326829,
          0.010486148698500036,
          -0.0007272042042585266,
          0.005606325904392305,
          0.005645604983291225,
          -0.0018579491823955607,
          0.006203815851483154,
          -0.001142829780532367,
          -0.004385826636678573,
          0.007178362105426777,
          0.010662935211705082,
          0.004457052545460958,
          -0.0012614729974213476,
          0.0069561281511948325,
          -0.0008485467067871288,
          -0.0012787550280756222,
          -0.008383147359532458,
          0.011038759399956645,
          0.0008701864328714193,
          -0.003337584072233695,
          0.007433003961668541,
          0.004213717239928155,
          0.001524390151266958,
          0.001713369178349795,
          0.002604111659163763,
          -0.002327519311323876,
          0.0020442208625229006,
          0.005568952743299666,
          0.003104031606178718,
          0.0018705225914764476,
          0.001067105454114254,
          -0.0008142767548946793,
          0.004470569217909736,
          -0.002159993005993087,
          -0.0003831708008127497,
          0.0022798933034232824,
          -0.0063268841199193805,
          -0.007242127848597928,
          0.003933244760501791,
          -0.003521099290055249,
          0.005761198778433585,
          -0.000802550686044001,
          -0.0019660999838727418,
          -0.0014217039723294798,
          0.007981336050422842,
          0.007201152642825278,
          -0.003837513403420976,
          -0.004790121296943135,
          0.002323110806470907,
          -0.003098313696806878,
          -0.002672754037393114,
          0.002816331214151536,
          0.0040427640089048715,
          -0.004902091380530382,
          -0.004312980833444059,
          -0.003973729275877394,
          -0.005619481770494532,
          -0.008282722399153196,
          -0.007020417370160513,
          -0.0007915381017390861,
          -0.001132339414267883,
          0.009544350876259343
        ],
        [
          -0.0008624033051149956,
          0.0070607043401244894,
          -0.0033449853048347833,
          0.007450322241094282,
          0.006005491368050649,
          0.0016713970420000079,
          -0.0070933872126752225,
          -0.00021884226192027138,
          -0.0001320833787219582,
          0.0027501077969787095,
          -0.0021258283602342636,
          0.001626416935577922,
          0.00011402890726064492,
          -0.0003998865641137423,
          0.0005133415721133326,
          0.000708927189660689,
          -0.00101109195571979,
          0.002182187774911017,
          0.004331264315192017,
          -0.0014724762217497849,
          -0.0015146261128336424,
          0.004329357409918429,
          -0.005324708601125939,
          0.00894026845508263,
          0.003916584921048696,
          -4.8231796436371246e-05,
          -0.0006632056384586784,
          -0.00607236796743154,
          0.0032140725439432326,
          0.005278120556145578,
          0.006458374524663681,
          0.0016121609357477975,
          -0.0021127039282452377,
          0.0024857405612860664,
          -0.0040500326178436975,
          -0.0014219038731298039,
          0.00022218042795469505,
          -0.008369377499135341,
          0.00047541408122132303,
          0.008900256317898805,
          -0.007521565969646066,
          0.0003023442505997244,
          0.003604421781506556,
          -0.00038331235284628503,
          0.00035591904806972334,
          -0.004635266754694943,
          -0.010513368931815158,
          -0.0004966477768072514,
          0.004141625159296333,
          -0.0010660766171214904,
          -0.0016831955537089487,
          0.0030362213683489277,
          0.0036782148301354183,
          0.0009793819895283968,
          0.001729070695711044,
          -0.00016649179123031732,
          0.00029603796201912194,
          0.005739254270759323,
          -0.0056838469775468935,
          -0.004496141596744482,
          0.006907546226001556,
          -0.005706713177092976,
          0.002204250457580258,
          -0.006781094325929053,
          0.0037449923155021413,
          -0.006553412677723813,
          0.003080359475828949,
          -0.00372595974816484,
          0.008087813101000107,
          -0.0016360447703720898,
          -9.165317021351978e-05,
          -0.0012593148170814352,
          0.003913649110834654,
          -0.0055324906718502735,
          -0.0025744372854612724,
          0.0028638527639657098,
          -0.004828393874030781,
          8.0851518285476e-05,
          -0.002068414256036685,
          -0.0018302509039953947,
          -0.0027187651712597296,
          -0.007857876470733768,
          -0.0003365999515340536,
          -0.006353099092601628,
          -0.0001258338113964883,
          -0.0022158181618972383,
          0.006070099296389437,
          0.0059947017578359085,
          -0.001416262268943728,
          -0.0030005710362154556,
          -0.0022258140658480367,
          0.0019193289166528167,
          -0.0006088179626207763,
          -0.0038100936685164792,
          -0.006627343598086382,
          -0.005134120460841623,
          0.0005592826874627792,
          -0.009175489889677159,
          0.0009465698300027167,
          -0.014882096829156498,
          0.002704586958710523,
          0.0033064796865488306,
          0.00552682379544756,
          0.00016961710611684963,
          -0.0013561868035407564,
          0.0029870946895894424,
          0.0021535507799815097,
          0.004653757559210539,
          -0.001645351429923192,
          0.0022165214734272795,
          0.0020136632380079395,
          0.00505739242030538,
          0.0010412114691999105,
          0.00190473750340019,
          0.006696695903857403,
          0.004130964958956522,
          -0.001702499483858662,
          -0.008379138237497237,
          -0.003100959266222206,
          -0.0007090451650737067,
          0.005788401732175449,
          0.0054435098191630985,
          -0.00023433702487387763,
          -0.008761232679974555,
          0.0015944746993786355,
          0.006455814287682344,
          -0.0006081290460136437,
          0.001740719097145931,
          0.0007068237228030295
        ],
        [
          -0.004806948905705854,
          -0.003921271945247779,
          0.003747040609785853,
          -0.002529971821699128,
          0.00022224059295373918,
          -0.003326351308747395,
          -0.00502132105721264,
          0.00750230942133387,
          -0.01065765316782552,
          -0.00017066632958049203,
          -0.00525920633027442,
          0.0011013510087858097,
          -0.0010925225447989525,
          0.012849438132733971,
          0.0026225862216644933,
          -0.0003283029359131565,
          -0.0032052412340457465,
          -0.0025407826616008094,
          -0.005210195806541456,
          -0.00012570931195143484,
          0.005525036779712184,
          -0.005212859864635244,
          -0.006330953057064129,
          0.0006735033275806694,
          -0.0018972025461728708,
          0.003774409450946063,
          0.0028980046716307545,
          0.0016430753651159777,
          -0.002596043254378626,
          0.000698153231099216,
          0.007314724678066517,
          -0.0018553959589901736,
          -0.0007614437724354561,
          -0.0015366578632795339,
          0.007809808690126042,
          0.0009073191040379677,
          -0.0007017508424189696,
          0.002048599391791027,
          0.0005356726706770222,
          0.0039010949682653823,
          -0.0011283636377629827,
          0.012194476611373477,
          0.004776782719234332,
          0.00027940957932002966,
          -0.0006112234884972645,
          -0.002641579866198172,
          0.000834434983487899,
          0.015354041112303346,
          -0.0025876009166148394,
          -0.004869065375991718,
          -0.001705048950304341,
          -0.004780124775057525,
          -0.007195007117823287,
          0.006417767017333997,
          0.00179325801829924,
          0.0024424758454495293,
          -0.004654642806511781,
          -0.0008950452021317152,
          0.000919580784371566,
          0.0024042026811153245,
          0.00713226342344786,
          -0.0042068459647211995,
          0.00797183733242501,
          -0.00015822293193947813,
          0.0028288917586568835,
          -0.007671902844582595,
          -0.00047824039800735776,
          -0.004201966076053917,
          -0.004447315116805955,
          -0.0026789495792981974,
          0.004751382687284806,
          -0.000310459328901861,
          0.006250231401734156,
          0.002438368237372,
          -0.0031201628916647127,
          -0.008295007685358223,
          -0.008016256612150129,
          -0.007747581050889308,
          0.001561168862561418,
          -0.0045635160041699804,
          0.006514298791374119,
          0.0007688603905910929,
          0.009328297636642276,
          0.0018923883473597918,
          -0.002997293591349407,
          -0.0019314822630007093,
          -0.008220800078733496,
          -0.0050960532439613005,
          -0.003869848314641812,
          0.005784971962076335,
          0.003944075330416442,
          -0.00816971578485987,
          -0.007375412511844016,
          0.007797402217407143,
          0.006597955654736618,
          -0.009398848961211152,
          -0.004491331563526324,
          -0.010670578753675865,
          0.0018488255710324703,
          -0.004957661457946851,
          0.006054417594302326,
          -0.0013467714498143599,
          0.006807221453006687,
          -0.0022594519214768623,
          0.001954425874088942,
          0.0015540013099223412,
          0.010211564847195133,
          0.0052682946307272055,
          -0.0035801716452658165,
          -0.0019571645674491124,
          0.005320126817052251,
          0.001230307803193992,
          -0.002549446291182447,
          -0.002228090079990259,
          -0.0002144741174372284,
          -0.002865884692722859,
          0.004404927173736007,
          0.0031283248034250687,
          -0.004385785403307195,
          0.00011850298919561419,
          0.011789147246571548,
          -0.0012890241489779154,
          0.0025297528738908283,
          -0.0012883117699522993,
          -0.00019346803439071846,
          -0.007134789742560932,
          0.002012034569075105,
          0.000792835393413924,
          0.006445268563917869
        ],
        [
          0.00723754491544233,
          -0.0015741392591531247,
          -0.0021501893692781413,
          -0.003476205643915224,
          -0.0012955034230057482,
          0.004645418241295378,
          0.001966747789556154,
          -0.0013880603906457863,
          -0.0017280755431882797,
          0.0047906775427552515,
          -0.007731332935472002,
          0.004077233708266754,
          -0.005547701677023667,
          0.005374311916786598,
          -0.0015565404469949013,
          0.004752423795710569,
          -0.0013931813218069468,
          -0.0033288545856058017,
          0.005692489683665431,
          -0.011155540278332451,
          -0.0005838239800868474,
          0.00031989210537115473,
          0.005269686633686787,
          0.0010776314048053953,
          -0.001586757936170276,
          -0.00163123764479471,
          -0.004401261006227065,
          -0.00222960674801065,
          -0.010470796196051988,
          0.007157602969770852,
          -0.0003920065334222612,
          0.004390371233524851,
          0.010747534775347706,
          -0.0012205805376734424,
          -0.0022464446472593926,
          0.0028898235613890955,
          -0.0005091580031308719,
          -0.0021990653110666586,
          -0.0013870862279205184,
          -0.00384492908597384,
          -0.00015858123680877922,
          -0.0004856604738310963,
          0.010730726765167255,
          0.006330653343220454,
          -0.0026212675699932445,
          0.006396284069233407,
          0.007837267332055729,
          0.0037619024142300705,
          -0.0018767072868428642,
          -0.004001564079295513,
          -0.004454952354810713,
          0.006835827368845713,
          0.005631370740551212,
          -0.0066679225076364595,
          0.0008770061271765572,
          0.011043337857765193,
          -0.000600218425780976,
          0.002670662211451037,
          0.0032638205155839407,
          -0.004822205167507578,
          -0.010950903911121542,
          0.009106100887745036,
          -0.006656386709929541,
          0.005369797783672433,
          0.004767339822209532,
          0.0013853954196946365,
          0.00046923042442440725,
          -0.003164238562627989,
          0.0031728374208329913,
          -0.0015521229353263645,
          0.006306534381306473,
          0.002637853177618056,
          -4.8294748729169236e-05,
          0.0031582605158875874,
          0.0008850352765323994,
          0.006334126533205942,
          -0.0022227790883776947,
          0.002666390305103929,
          0.003778601763804154,
          0.0020782943770924116,
          0.0019067049233910858,
          -0.0011099757503751078,
          -0.0035123070358521677,
          0.0015275645123026106,
          -0.0018858620259643466,
          -0.002300894200339811,
          -0.006743638152572814,
          -0.0013095297451532154,
          0.0001893440695140765,
          0.00467534308683836,
          -0.001760042910504545,
          0.0034592529230835596,
          -0.008633222115018768,
          -0.0012459396772248998,
          -0.0007962076753435479,
          0.010391953568601031,
          -0.0025798003901853456,
          0.0007936217403957849,
          -0.00043602915256521214,
          0.0035402784011919456,
          0.0014080268929791973,
          -0.009363750518793299,
          -0.0013548631768783516,
          -0.0048669211732656915,
          -0.0055571835615120056,
          -0.01174504314438191,
          -0.0017105277178000677,
          -0.007054326912785673,
          -0.0017143363734348177,
          -0.001553669250747556,
          -0.004356601041075966,
          0.004567230560291599,
          2.8570632307201396e-05,
          0.006282989864847256,
          -0.003963829883885948,
          -0.0013776428275714336,
          0.0032019846955647783,
          -0.003520813447042201,
          0.0059068036096393646,
          0.0006532405974762647,
          0.0009912200903138724,
          -0.0012618267698244479,
          -0.0012325362531021029,
          0.004613688391072729,
          -0.004955739055202818,
          -0.002519054320426107,
          0.011441856606631221,
          -0.003607440441724709,
          -0.0012250548119764498
        ],
        [
          -0.0038715429420917544,
          0.007206321694349083,
          -5.331606790593038e-05,
          -0.003476307734622025,
          -0.0012784509973103849,
          -0.0023492016984361435,
          0.0036679018335582085,
          -0.0060410821115064,
          -0.00022448715548155048,
          0.004578944677638751,
          0.006664195452997515,
          -0.008515498366613873,
          -0.005466617824642563,
          0.006013488836352093,
          -0.001885369371896065,
          -0.0007292249315403269,
          0.0063831534508420615,
          0.007640894353451924,
          0.004789159451845292,
          0.0006559485231116645,
          -0.001873910193995352,
          0.002819209122275458,
          -0.0028845056896965537,
          -0.007298960840349051,
          0.0004294990421552017,
          -0.0030665110798325334,
          0.0008833230536381871,
          -0.001461185893202255,
          -0.003598825398985656,
          -0.0021005185242728556,
          -0.002381133958739405,
          -0.005255561807607548,
          0.0016051000276049094,
          -0.0015046059670538688,
          0.005809962719573216,
          0.0027230500383753887,
          -0.007199609176102462,
          0.002969049786034401,
          -0.0010517874980211907,
          -0.0030397490767578,
          0.00065506681034303,
          0.009041517816144016,
          -0.00885934899558865,
          -0.0016831683911200895,
          0.003938533760087238,
          0.0069589213086691136,
          -0.0008524932254620116,
          -0.0027390375638033423,
          0.014729948257240185,
          0.0041333368287330965,
          -0.003278021175421571,
          0.0007153068230580188,
          0.0027106484576555766,
          0.006365839894403619,
          0.006749829823466222,
          -0.005308671487425345,
          -0.002128020626197218,
          0.002954227001007383,
          -0.0041998285145678285,
          -0.0019103580075856767,
          0.007954315103236284,
          0.002941405367463393,
          -0.0019177312709900023,
          0.0006593025328635632,
          0.00366851076428572,
          0.0016919311222741834,
          -0.006394215402368246,
          -0.0019903486923300486,
          0.0019142752816443769,
          0.0033803393786146956,
          -0.005010752784891002,
          0.004985744548018768,
          -0.007267853197032614,
          7.734667433540982e-05,
          -0.006484391066732934,
          0.005893998382791287,
          5.153011470236753e-05,
          0.0001682393767282057,
          0.0018125594094978298,
          0.006731788933977973,
          0.002890089257982955,
          -0.0005713085174840347,
          -0.0029694458197251886,
          0.011814136677125687,
          0.007375480262207058,
          0.0026801075609639304,
          0.0034312150997260387,
          0.003983224957741138,
          -0.0011758113596863431,
          0.0004637220013570116,
          0.00378414369254061,
          -0.013792605353042192,
          -0.0035323300174206936,
          -0.007372621862043557,
          -0.004830225917128661,
          -0.0068510950344335565,
          -0.005873618379986326,
          0.008128629859627498,
          -0.0009530127425543507,
          0.004744279150824791,
          -0.003530379287933685,
          -0.008064848523458321,
          0.006756427741543578,
          -0.0026705519926638493,
          0.004014722585686161,
          0.0006236132157802147,
          -0.00678647731782634,
          -0.009459462748210582,
          0.00475307340108828,
          0.010709025918425513,
          0.007094008183936901,
          0.0011942855600533078,
          -0.013656134705387202,
          -0.0061670059981918865,
          0.00612755516282217,
          0.007693355203997126,
          0.008340088308038921,
          -0.001832150808348497,
          0.0020541859848011044,
          0.004019068309492619,
          0.0038475569031632944,
          -0.0004861643705998375,
          0.0009681753724732213,
          -0.0019129515087434464,
          0.003079558920719539,
          -0.0028725542849132968,
          0.003273002082117594,
          -0.008569028322077258,
          -0.0022380498546072823
        ],
        [
          -0.0054803889704840665,
          -4.115795149184373e-05,
          -0.0014272200256182348,
          -0.005000687890988645,
          0.0009689547399976553,
          0.0010446041348625135,
          -0.00036343929187886647,
          -0.0046088084359800045,
          0.0008430330297738498,
          -0.004286262868553626,
          0.004416066185313753,
          0.0036020948263454197,
          -0.001406942279421034,
          -0.002310438199972822,
          0.006328636625173196,
          -0.003975553087204999,
          -0.002717394107866342,
          -0.002099891454138799,
          0.0018275896042170073,
          -0.0071503386818301306,
          -0.003701071778066205,
          -0.010335764682312433,
          -0.0023179987671519487,
          0.0077236250719442175,
          0.0021947680264588426,
          -0.008472083917390185,
          -0.004406617493216158,
          0.003915313780204224,
          -0.0007743210460198829,
          0.007301759774369686,
          0.003059198734087376,
          0.001973248810596391,
          0.0010475740489327137,
          -0.00018866500807854992,
          0.0014993994553294018,
          -0.0009448767330299824,
          -0.004424555486272045,
          0.0026934390946847697,
          0.00046959481333363866,
          -0.001915238036684151,
          -0.0051537800218811785,
          -0.0057309191927991205,
          -0.0019450004669863481,
          -0.0023619979859451305,
          0.0017108692168481062,
          -0.0014617064299420673,
          0.004506238449435786,
          -0.00017116306393075083,
          0.0032356729113742102,
          -0.004629034305018274,
          -0.006447597146132277,
          0.002090048802753503,
          -0.0006726053199599828,
          -0.006273600059714721,
          0.0031435434920114983,
          -0.005055677363835861,
          -0.0029397647532298844,
          -0.001174829033393865,
          9.755552909774713e-05,
          -0.0007282927955449058,
          0.0024893286643265767,
          0.0059237328408978185,
          -0.0037163866841157297,
          0.006945678476984881,
          0.0012042552157070585,
          -0.005973633457960574,
          0.004632420123261345,
          -0.006841575126615512,
          -0.003950590757027082,
          0.0038579125827167826,
          0.004875022829608077,
          0.007763842877844853,
          -0.001960783091946883,
          0.00353498045689176,
          -0.0059724824436886,
          -0.003062186972422735,
          0.004224956565393309,
          -0.0007475926305053657,
          0.009192560977580541,
          0.004109936242389557,
          -0.001896676261471754,
          -0.004791740042290188,
          -0.006221464789356643,
          0.0010135611742695468,
          -0.003819399025477642,
          -0.006767318646897392,
          0.0022106976553587275,
          0.002233414063154444,
          0.007850639958140138,
          -0.007978622552549977,
          -0.0008863884358980834,
          -0.007777576154356908,
          0.0034916202869653586,
          0.0011659620451485574,
          0.007650833898546536,
          -0.0009823625391843151,
          0.002824359566470155,
          -0.0018398278910339446,
          0.0009551396281539238,
          0.00014392430760206825,
          -0.002238655133378983,
          -0.0048633785140825385,
          0.0001001139452064074,
          0.00042598240343069867,
          0.0032140412210703473,
          -0.0005199286982860585,
          -0.00463721896208169,
          -0.0045847886401178895,
          0.005240142498463246,
          -9.766685013228833e-05,
          -0.004501009557947403,
          0.0016218567179441435,
          -0.001511738769662223,
          0.0013941339200440462,
          -0.00678293852644905,
          0.00012471501173809955,
          0.001376065735685519,
          0.0023017539469214745,
          -0.002803298542671201,
          -0.0037091049191727127,
          -0.0038084597030016154,
          -0.0018615598043664337,
          -0.0012757812093782822,
          -0.0014688549403760588,
          -0.003951173547635235,
          -0.004010126333498526,
          -0.0014618910082571477,
          -0.007241285344783891,
          -1.0641957645558266e-05
        ]
      ]
    },
    {
      "ObjectType": "DenseLayer",
      "Metadata": {
        "InputDim": 20,
        "OutputDim": 1,
        "Activation": "Sigmoid"
      },
      "Data": [
        [
          -0.003973599167426968,
          -0.007285685455493292,
          -0.0008683510543457425,
          -0.00150437896243371,
          -0.003025131364877713,
          -0.005572260475738321,
          -0.00033067891461662294,
          -0.0016697300855894146,
          -0.004025855695040978,
          0.0023609827591495676,
          -9.961310435520026e-05,
          0.0021946134055277735,
          -0.004508984895166658,
          0.003741533570540754,
          0.0024744648790851515,
          -0.004354717714017522,
          -0.005214542621972028,
          0.004547898684403974,
          0.005826301413143693,
          -0.01515843477207075,
          -0.0019271978690874215
        ]
      ]
    }
  ]
}
