{
    "ObjectType": "DenseLayer",
    "Metadata": {
      "InputDim": 3,
      "OutputDim": 3,
      "Activation": "xyz"
    },
    "Data": [
      [
        1.0,
        2.0,
        3.0,
        -0.09
      ],
      [
        4.0,
        5.0,
        6.0,
        -0.1
      ],
      [
        7.0,
        8.0,
        9.0,
        -0.08
      ]
    ]
  }