{
  "Libname": "nnet",
  "ObjectType": "Network",
  "Metadata": {
    "NumOfParams": 2101,
    "NumOfLayers": 2
  },
  "Data": [
    {
      "ObjectType": "DenseLayer",
      "Metadata": {
        "InputDim": 103,
        "OutputDim": 20,
        "Activation": "Sigmoid"
      },
      "Data": [
        [
          0.0037768540463589523,
          0.002623232804790855,
          0.0030521126115465483,
          0.0017814555362703432,
          -0.004834278109176575,
          -0.0018538979739881722,
          0.006374806841464003,
          -0.0045203450531151835,
          0.005870644279345126,
          0.013232090547762558,
          0.011142841261019085,
          -0.0037738523795234798,
          -0.0025447680569843784,
          -0.005281420760848306,
          0.010794972375548665,
          -0.004834220722650167,
          0.003029603680984955,
          0.009963213443225842,
          -0.00012857005795627714,
          -0.004674363289689648,
          0.0012877056008499545,
          0.00285064170921067,
          -0.00508593099880579,
          -0.001404240007889313,
          0.0028100818973240092,
          -0.006011137839981454,
          -0.005284193474758035,
          0.0016998920916143064,
          0.004883388002418206,
          0.006461597743009263,
          -0.005364879546545234,
          0.005243148580237759,
          -0.0049369556852039195,
          0.0027620918764050396,
          -0.005382913267753971,
          0.0018846460658338837,
          -0.0018325319604389906,
          -0.0032283823454901535,
          -0.003545784292042692,
          0.011280413671169139,
          0.005324496151211895,
          0.006477240414001438,
          0.0034652299294471206,
          0.0017352442876355902,
          -0.006685099572665246,
          -0.005021169667033501,
          0.0022506773190537916,
          -0.0007879841277792816,
          -0.0009494860480244152,
          -8.319135148580591e-05,
          0.00115493573829772,
          0.0010188559857642145,
          -0.0090664397682413,
          -0.0007297373998448214,
          -0.0006958271169668846,
          -0.008494027235807177,
          -0.0023090831396065437,
          0.0022609146827654563,
          0.007052592235104644,
          0.007802144558372538,
          0.0006019571963011611,
          -0.005506030431561901,
          -0.0068068296763242955,
          0.003921967304073198,
          0.0008498488078035068,
          -0.0034925925097619077,
          -0.003682938843313622,
          -0.009192165277843957,
          0.0016971720814519958,
          0.01086158504017848,
          0.001330097803828767,
          0.0015582864302687962,
          0.0038489725886070437,
          0.0064933997953219745,
          -0.0014230296120716782,
          -0.0023153682887525,
          0.0084001354807976,
          0.0021951839604687287,
          0.0033944448976385828,
          -0.01027193648117123,
          0.004595605698647956,
          0.0016558767177106892,
          0.0038724888942446977,
          0.005745629396019957,
          -0.003645009855313207,
          0.002067643444523421,
          -0.004000096048951199,
          0.013642690268336278,
          -0.0019511497535774963,
          0.005518994744967408,
          0.006520251981594251,
          -0.0033069390572027296,
          0.004665572359408203,
          0.006465146175734029,
          -0.0007013242964807627,
          -0.007934414424667748,
          -0.006114322505473076,
          0.007884965536358842,
          0.006305219507199754,
          0.004153770481423469,
          -0.0013964864488638234,
          0.005662849670729527,
          -0.0035825532676384657,
          0.001993131303614835
        ],
        [
          -0.0004648931686913014,
          -0.0076190856158225816,
          0.007635047122053789,
          -0.0038707778938232434,
          -0.004552838681566346,
          -0.005686057443023676,
          -0.0022987141214311987,
          0.001994952952151037,
          0.0018508657268037042,
          0.0023695482542934894,
          -0.005471232565038574,
          0.006186416041637401,
          -0.006186639139267829,
          0.003746763327905164,
          -0.005737066725865713,
          -0.0038328164750188157,
          7.56602706412888e-06,
          -0.002877525772798915,
          0.0031756251797491024,
          -1.2894057571554798e-05,
          0.0013961144027263965,
          -0.005001969242744352,
          -0.0010183871920645638,
          -0.0027977570069030854,
          -0.0004755625783241606,
          -0.004889412252518035,
          -0.00446507342543798,
          -0.0035813682017896936,
          -0.0031369456109777514,
          -0.005270229620648927,
          0.00742181608656191,
          0.0017504065806348275,
          0.006486970449801797,
          -0.0033483271232523314,
          -0.006546444064753552,
          0.0028502692580429975,
          0.005253034757194993,
          -0.0062714803645221515,
          -0.0003425435312878676,
          -0.00402097814743763,
          0.004005483033868616,
          0.005942627168793991,
          -0.0002660947686143096,
          0.004543072153306523,
          -0.000705488078209977,
          -0.0039119013446640965,
          -0.002887574877241503,
          0.0020363604607915612,
          0.0022444545542781983,
          0.005992750955582094,
          0.005385785385082033,
          -0.008898621442689618,
          -0.004170873166658187,
          -0.004034495559782995,
          0.0033129986505849914,
          -0.006964125203952243,
          0.0012695738489407256,
          -9.285514507459945e-05,
          0.005852512346639621,
          0.0007801218874461852,
          -0.010841847675037814,
          0.01090146821956388,
          -7.663816135025731e-05,
          -0.00641661540794749,
          0.0038067405468143176,
          0.0017549025955808397,
          0.006035635758694926,
          -0.006313886411263841,
          0.004049068909005375,
          -0.002798486878863348,
          0.006433905625950585,
          0.0019453308488808065,
          0.0016539121107664572,
          0.0013712097788779493,
          -0.006244097083112311,
          -0.004708586962983372,
          -0.0018530410464290905,
          0.0008662245455492412,
          0.005096016002402739,
          0.003336484656573728,
          -0.006086962680956723,
          -0.0015332161523110318,
          0.0008614829804595907,
          -0.0019287446309124933,
          -0.0024779619970348274,
          -0.003921588739422719,
          -0.009798935999174549,
          -0.004724626863841975,
          0.014836038693998618,
          0.004900659061207065,
          0.0043734947753002115,
          -0.002696000044135899,
          -0.0017636336632841463,
          -0.0028480396240026145,
          0.0011182928445806534,
          0.003623305932450809,
          -0.005062150315923324,
          -0.004570354260717615,
          -0.0019595687728782983,
          0.003862037068342388,
          0.00185313939699603,
          0.0019195903537568744,
          -0.0009552153810735397,
          0.002070463756020565
        ],
        [
          -0.00039202353858876747,
          -0.008396008525917875,
          -0.0003726545271312463,
          0.008239489915475974,
          0.01021975738440235,
          -0.006654858898684758,
          0.0006098420873396714,
          -0.0043169473954482,
          -0.003547937763682903,
          0.010299324866760502,
          0.0012756700733867823,
          -2.9560343031235424e-05,
          -0.0014926959177563725,
          0.0029622869012765844,
          0.004618793621423251,
          -0.001448805805995422,
          -0.003025492446432317,
          -0.00402229646376656,
          -0.002450360072693573,
          0.0037571279509392014,
          0.0012603839386226038,
          -0.001329372622772163,
          -0.0010666100231177767,
          0.0024054187954223203,
          0.0006394140966804828,
          -0.0015640826510529907,
          0.0017711712369596557,
          -0.009972649715460215,
          0.002189699061597769,
          0.002729710656207367,
          0.0012001055788633326,
          0.003515744034150482,
          -0.004061713797446115,
          -0.003668326983291706,
          -0.005888045077210583,
          0.005146205875054936,
          -7.332593009138632e-05,
          0.007644872335183955,
          0.002433337168226345,
          -0.0029041795109144624,
          -0.001715107578166238,
          0.0027964141350107644,
          0.0017959180169090055,
          0.0009690118984273554,
          0.0013921808580181663,
          0.0018111297975104113,
          0.0036976487372424394,
          0.000391626370229128,
          -0.006966367842368693,
          -0.0004967111284168717,
          -0.005971273343398516,
          0.0022016430393993073,
          0.005184157996995662,
          -0.007982000803201689,
          -0.002791657060638478,
          -0.0031626369492051103,
          0.005015306698552944,
          -0.0018350827757863362,
          -0.0047672612961538775,
          -0.0013996141078437096,
          0.0029327531929754795,
          -0.004140882802839843,
          -8.369649966387903e-05,
          0.0037960475903396373,
          -0.005454654312982387,
          0.0012543242087580894,
          -0.001728019695669394,
          0.0008931017116038464,
          -0.0013150392260322871,
          -0.008253517566822405,
          -0.0029476269153680774,
          0.001513163141880446,
          -0.00014150166803185877,
          0.0075683440954314365,
          -0.002520447283106023,
          -0.005561172022838902,
          -0.0006978657644676369,
          0.009469795436779904,
          2.3108029535287874e-05,
          0.003678849452545646,
          -0.002969225079801563,
          0.004843835696913152,
          0.009405005424208652,
          -0.0008382998158507661,
          -0.0032420649064721628,
          0.001320077567198451,
          -0.0003841089309026901,
          0.0011612685384227836,
          -0.0036157524246227457,
          -0.0027365927106018286,
          -0.0016442958782863558,
          0.008601927269554456,
          0.007140427137266757,
          0.01233192048237238,
          -0.0008029863008668823,
          -0.008400900093940372,
          0.0032393651342533017,
          -0.006815956688975462,
          -0.008831716767880828,
          0.0006529146575987861,
          0.000364104834498934,
          0.010804963590112663,
          -0.0032285259601588854,
          0.0027196898496329495
        ],
        [
          0.014239318410804636,
          -9.547627518329986e-05,
          -0.002240289288170622,
          0.00018751832766499623,
          0.0031377527726805603,
          -0.0016388224859654973,
          0.0017389465181609322,
          -0.011531552173040686,
          0.0029492275264659112,
          -0.008161215774265804,
          -0.002456975007992533,
          -0.005743033167457187,
          -1.075174058712348e-05,
          -0.0009222878947997088,
          -0.006459366939837077,
          0.007761957032733447,
          0.0031390913082694856,
          -0.0006169455233458146,
          -0.008138665467589441,
          -0.0021036847614930303,
          -0.005907021171315031,
          0.00233363900127668,
          0.0014777519566038645,
          -0.0013309191118076045,
          0.0001027477865508196,
          -0.002571108696018031,
          -0.0003342503418832042,
          -0.00357854049639504,
          -0.001689107188178932,
          -0.0016587734039483746,
          0.0013433941620413236,
          0.004070657881844239,
          0.0012704280009741317,
          0.006665244406193978,
          0.003619856561307621,
          -0.00035783047775461165,
          0.006118914727834949,
          0.009525998423877762,
          0.0020645341721963854,
          0.005520216033836706,
          -0.003992063003798572,
          0.0016654928094486253,
          -0.005637213598241997,
          0.00159311155277779,
          0.0026772826852435624,
          -0.0011310547436044686,
          -0.002770659996572606,
          -0.0015521350709401139,
          0.008601718063261854,
          0.00016443819742338963,
          0.0037996856346823272,
          -0.0025933989797636402,
          -0.004322936206567168,
          0.003514763698999784,
          -0.011129835125396,
          -0.0007632133336842979,
          0.0006853909110547981,
          -0.008407423079261143,
          0.0013559995660796524,
          0.0007738978686655699,
          0.004235468023429735,
          0.0016466886123711842,
          -0.006859679735973908,
          -0.0069000933848399615,
          0.00462101452179934,
          0.007218558695517879,
          -0.0033895700938720986,
          -0.002710980755306249,
          0.002971647502590552,
          -0.008709856958514988,
          0.0031387534726476946,
          0.005301058602627057,
          0.009442426320056202,
          -0.004960973105806709,
          0.0008632804767678418,
          -0.0013837412910636814,
          -0.001504910803506981,
          -0.0021081500747284084,
          0.0052494870169325185,
          0.0003142715091908497,
          -0.004531536422251308,
          0.002651884665758107,
          -0.006678663890810581,
          -0.003464593952040685,
          0.0048700215094040185,
          -0.002522039027356251,
          0.0023961531310672346,
          -0.0014768657896622162,
          -0.0036871442024729376,
          -0.0003564680609481986,
          0.00035702466968013465,
          -0.0024349483705056836,
          0.003292287021317633,
          0.0019590947049790836,
          0.008457252032522152,
          0.004934496854402672,
          0.004857081394629207,
          -0.0032944076702755695,
          -6.586057951678221e-05,
          -0.0019701118201617645,
          -0.0007362290161299006,
          0.008439532043573329,
          0.003168305641644673,
          -0.01021644736843795
        ],
        [
          -0.004228515056896015,
          -0.008767934429837336,
          -0.0014581095060732991,
          -0.01183185391460817,
          -0.0026740281596776276,
          0.011952882925761616,
          -0.0029291106801272245,
          0.0018085649205964493,
          0.00016954000648670959,
          -0.0031056116921806963,
          0.010936742066279816,
          0.007637745098427438,
          -0.011083343798228737,
          -0.00572570849548886,
          -0.0023952594587654838,
          -0.007222416961718408,
          -0.0011370692987564901,
          0.0060662419439625375,
          0.0030886284501007435,
          -0.0010065215267849948,
          0.0027538648841565023,
          0.0001856283230244636,
          0.0017418880549323072,
          0.0020207677463657367,
          0.0034627062095866578,
          0.0006496077145320184,
          -0.005401039772326478,
          0.0011083876364224462,
          0.0017823052111532506,
          0.004225993522084088,
          0.008744411407518039,
          -0.0025739681653042337,
          -0.005736988206494459,
          0.0012769703767079013,
          0.0015731714251962998,
          -0.0007777066450247428,
          -0.004529755470283199,
          -0.003979342823991532,
          -0.009301479345888668,
          -0.004066132825278501,
          0.007143195631122367,
          -0.001263338495305433,
          0.009686250509043027,
          0.00620543863201376,
          0.0011957532628097053,
          0.0029161707019578127,
          -0.011302349420995011,
          -0.0016725215237219317,
          0.01036918776481986,
          -0.0066091773291033955,
          0.004009535517205215,
          -0.0076749704009902876,
          0.001471177300023537,
          -0.0001744742448246802,
          -0.003986135993108958,
          -0.0035603038382655276,
          -0.0031461362383684494,
          -0.0022702061349425466,
          0.0009001137811528256,
          -0.000342093995966516,
          -0.004680873332108536,
          -0.00039146750126644637,
          -0.0023382778165445465,
          -0.0058853099167186455,
          0.0009252079154807958,
          0.011878678263139118,
          0.00563410194472001,
          0.0037014092620097066,
          0.0008628353732007941,
          0.0007911845017494779,
          0.018417597055303294,
          0.0005051060130339257,
          0.0062543523014987066,
          0.006991276864019448,
          -0.011333662818998858,
          -0.004103992450296632,
          -0.0029656055955302393,
          0.0019037350612395752,
          0.008836853813736136,
          -0.005200933593235099,
          -0.003305354892567891,
          -0.009063668745559977,
          -0.0066533252555658375,
          -0.003976795779454639,
          -0.0010723816834403085,
          -0.00291715974508722,
          0.0021406091752627825,
          0.013740664878280752,
          0.003219706052710395,
          0.00562084071541776,
          -0.008862718185115399,
          0.0004411852936920429,
          -0.003960769821285227,
          0.008673271238490427,
          -0.0038273407660527653,
          0.0010204476725949195,
          -0.0020288159365881397,
          -0.006596861868706138,
          0.0042672931927695565,
          0.0020412782282129083,
          0.002369677886764972,
          0.004353360976898509,
          0.005274605453966291,
          0.0041941223245928775
        ],
        [
          -0.004911144007008499,
          -0.0008847697002262488,
          -0.004108347831903988,
          0.002593670899402006,
          -0.0076063505931217405,
          -0.000747635466415257,
          -0.00649098876817509,
          0.00032156703684886476,
          0.0034254505057502013,
          0.00012470113300889113,
          0.0017320335777086138,
          -0.005658225353409243,
          -0.0045922977496179775,
          -0.013695508528025717,
          0.0036466756934785483,
          0.007218651191496131,
          0.006269535773870556,
          0.00038462892088872024,
          0.01341609551832152,
          0.005945996743387043,
          0.007964307186836779,
          -0.0034749682782514607,
          -0.00870311142477562,
          -0.00035065632785180015,
          -0.00031465036133060756,
          -0.007051168646793598,
          0.004378135728415301,
          0.0012087040368899031,
          0.005493067445595077,
          -0.0027363700472680143,
          -0.00271017887112296,
          -0.007222780457978157,
          0.0008179683459891693,
          0.007953709047160118,
          0.007040418917574358,
          0.00249169012043458,
          -0.0034707118123183727,
          -0.0019194107400492524,
          -0.003568852299636036,
          -0.005248338332645506,
          -0.005151202694168543,
          -1.9139087415181282e-05,
          -0.0012041925008757033,
          -0.0017453207947124303,
          0.00010345487610932571,
          -0.005275441480055075,
          -0.0033378489379093934,
          0.0022616292116419525,
          0.004205016201903919,
          0.007105431147324577,
          0.007076193473962303,
          -0.0027316851977144158,
          0.003648180048547991,
          -0.0025768944452200624,
          0.0026297760683372745,
          0.0040004011137015055,
          6.7577781538221e-05,
          0.002776784937964532,
          0.00039621654030846487,
          0.0008154820409945697,
          0.0026616845973816187,
          -0.006297673378331849,
          0.0002702010884647338,
          -0.0004401824482690177,
          0.0017043714651449773,
          -0.0019503820402927909,
          0.0051778358840101095,
          -0.008557905527115743,
          0.002271623524352643,
          -0.004378764239599111,
          0.002750021934361777,
          -0.007703758685877216,
          -0.00010743434818985412,
          0.00581620852624465,
          -0.0018902766126549983,
          0.009071415103194702,
          0.0024898310118538517,
          0.006115132474721306,
          0.00208028845669709,
          -0.0005939386653501503,
          0.00486603635089147,
          -0.005842094382158126,
          -0.00044124189798404453,
          -0.0050372241309375254,
          -0.004567474934583001,
          -0.0031330079985517206,
          -0.00484642735986287,
          0.0076455274046992455,
          -0.0031865578868585857,
          -0.007488086283520795,
          0.0005143406254314656,
          0.0009518589152754925,
          -0.004563115776576467,
          -0.003071687000494909,
          -0.0029915837278715798,
          -0.0010109843629212553,
          -0.00048753753160284846,
          0.008847442263247244,
          -0.007092783509352273,
          -0.0018894235704839915,
          0.005842302568130262,
          0.0003549304299998063,
          -0.0038891904724916598,
          -0.004219327580231508
        ],
        [
          -0.002809550640145156,
          -0.0037387778150033287,
          -0.00325181978347374,
          -0.006417505964623036,
          0.011341325468970374,
          0.0027713631449202652,
          -0.002946556730577102,
          0.003792534921008819,
          -0.009516612124659263,
          -0.003057307824485592,
          0.001841274288816991,
          -0.00041578816534034943,
          0.014941074951188545,
          0.000675883003583356,
          -0.003827227123595061,
          0.006344637708337466,
          0.0016309179089465814,
          -0.003732807876144845,
          0.00038038519561345047,
          -0.004474008156602471,
          0.006974673238554216,
          0.0035041517418687063,
          0.006499955637955581,
          0.0008922909981578742,
          0.003383954704908788,
          0.001510844833375587,
          0.0019089411916190222,
          -0.005305874217594883,
          0.008218425005720023,
          0.000956817104326322,
          0.0038403169421790634,
          -0.0013791046919138894,
          -0.0008952494419158069,
          -0.009037363258017983,
          -0.003382540051221753,
          -0.0009840256614180225,
          -0.0054895120965993815,
          0.00980113933325563,
          0.00045969322360558517,
          0.0015044122900628165,
          -0.00046273488021636336,
          0.000162680633004444,
          0.006093089397699907,
          0.007592150894361976,
          0.0007398473058812633,
          -0.002232100042793099,
          0.0033297808018778853,
          0.0001252870835670925,
          0.001497197139823455,
          0.00059781291671648,
          0.0007196735119545769,
          -0.0011248333996126325,
          -0.0012021948618651918,
          0.006408821368569099,
          -0.006189629241399324,
          0.002582194151182024,
          0.001391536668232425,
          0.005920518541426588,
          -0.0005230567348811375,
          -0.0007261987076598263,
          0.015451476297542595,
          -0.006707059399282799,
          0.006911189777239504,
          -0.0019697566657952627,
          0.0046064986683964845,
          0.001162439040205955,
          -0.0006482699525696684,
          -0.0016539623314971933,
          0.00663340394670677,
          0.003879069887587342,
          -0.011157867825154282,
          0.00454177879471233,
          0.002277798257684084,
          0.0029668468931248644,
          -0.0012899717250848606,
          -0.0008025926512197647,
          0.0021016111984705145,
          -0.008278623877127736,
          -9.126200569569105e-06,
          0.0037332613938202324,
          -0.002973591736075831,
          0.0015516746333671628,
          -0.003323856776082477,
          -0.002478312350204333,
          -0.003950120525169114,
          0.0009722478799353036,
          0.003906876743803073,
          0.001113025112981554,
          0.004450053097604693,
          -0.0018626783321152355,
          -0.00381704346181377,
          0.006902300879642067,
          -0.006324761793425713,
          -0.0010372183983456233,
          -0.0047267384888552595,
          0.004537706547149195,
          0.0010713152666610676,
          -0.0013241026140809128,
          -0.0008251834756282143,
          -0.00191323281992996,
          -0.006167581350572627,
          0.0006999095075694512,
          0.007808397484104956,
          -0.0018086597701964344
        ],
        [
          0.0015959636457325219,
          -0.012939421848916567,
          -0.005326740602273104,
          0.011670249972665503,
          0.0033666295155757534,
          0.005058982246061524,
          0.0044750664597207005,
          -0.005576754356452492,
          0.0012410552489185585,
          0.003890123581652333,
          -0.0023752962811015577,
          0.0010066707600810423,
          -0.00010337328831054189,
          -0.005404291886708867,
          -0.00016843297911720186,
          0.0008179223834817253,
          -0.0004501139284295135,
          7.561133069405064e-05,
          -0.004138785634764529,
          -0.008116278720750264,
          -0.004693705012116271,
          -0.009507553110710274,
          -0.0011982688634370482,
          0.001408460403285639,
          -0.0002698208335108115,
          0.012030822454045182,
          -0.0018761063448766461,
          0.0029354172207310385,
          0.002034665015425875,
          0.00012384228373801018,
          -0.001554348487756094,
          0.0035637733618061286,
          -0.004179305127916789,
          -0.0027527065840178013,
          0.0023119409549358025,
          -0.0017259535163743616,
          -0.004161483201210441,
          -0.004525450062359357,
          -0.0035535798791150068,
          0.001254943348008495,
          0.003813188289157794,
          0.0026571492347297215,
          -0.003965706604631491,
          -0.005510781351351963,
          0.007622068005758942,
          -0.0073784895984685805,
          0.0008282616937148396,
          0.0022248569216366653,
          0.011094135937057683,
          -0.0034643592021777543,
          0.005709940289834023,
          0.00245370000577049,
          0.0006824330528466271,
          0.003951462288586496,
          -0.003756318767863707,
          -0.007635671975422982,
          0.007519408033737648,
          -0.004206757525774345,
          0.002118320083300319,
          0.00040512199456259053,
          -0.002912890044576739,
          -0.003375650175602719,
          0.0029576044093792882,
          -0.0014149697890148787,
          -0.0008563018343750834,
          -0.004488331956023857,
          0.00407297442963518,
          -0.006667059720146158,
          0.0034179456667399097,
          0.0008192969382131322,
          -0.0021855469613743846,
          -0.0015683716806970717,
          0.00620023498664749,
          0.002957046371381118,
          -0.003058048332022907,
          -0.0003938364583509562,
          -0.0008225380906338678,
          0.007767981980210275,
          -0.0017588273330146717,
          -0.010991850212386892,
          -0.0007545276223835351,
          -0.00641549259375468,
          0.0019505799352745005,
          0.007338467978323997,
          0.003687725937720136,
          0.005483137571567576,
          0.0062188360061623295,
          -0.002957596108024499,
          -0.0015241306806018642,
          0.00717845312038248,
          0.003559698123198269,
          0.002589856560200447,
          -0.007405581937480674,
          0.003237826277948571,
          -0.0017027325186196565,
          -0.019173740402120533,
          0.0014318218443856604,
          -0.003531285566953054,
          0.0019806825537412305,
          0.0019137076768912758,
          0.004150890800179039,
          -0.0059341344395644775,
          -0.0031600320829275933,
          9.806196705472008e-05
        ],
        [
          0.009119012401964936,
          -0.0052880757436113025,
          -0.008921171465803826,
          -0.003400673113286843,
          -0.0032655726724033166,
          0.006638053200031024,
          -0.004326750608073365,
          0.008441400065946972,
          0.0009213841510357504,
          0.002473818164728283,
          0.0028374894366725765,
          0.009961990500122206,
          -0.0007466797004049331,
          0.0027051693524795728,
          0.0009289877153509702,
          0.007285883354781293,
          -0.003644232677320675,
          -0.002974134105579298,
          -0.0026712172272388393,
          0.00015636934638375445,
          0.0051452198903420366,
          -0.004054271807170632,
          0.000917436594354099,
          -0.0016241351793934466,
          0.0008382702694090115,
          -0.0018454882800407024,
          -0.0003593145989910695,
          -0.007497511438005756,
          -0.004192280578945369,
          -0.0034679951135071063,
          -0.005833881994163408,
          -0.002302404722196019,
          0.0067952799188186,
          0.004255707475863456,
          0.0033278415416598036,
          -0.009755536597775342,
          0.0006986619865607798,
          0.0012385292290749263,
          -0.003776748459720125,
          -0.003096874196254571,
          -0.006259716167467485,
          -0.0016202385996244848,
          0.005139320416741607,
          -0.006187427224748635,
          -0.0008554184950924637,
          0.001910841216251914,
          -0.009883347249160667,
          0.0021292063808390394,
          -0.014222691515465227,
          0.003648426269432239,
          -0.004152863133127588,
          0.0020699222254585013,
          -0.01041935108047946,
          0.00020956468394124842,
          0.007847900751630933,
          -0.007326196227945438,
          0.0047848483313229885,
          0.0018215827803140122,
          -0.009321503138669704,
          -0.008838438612433856,
          0.004506416897900803,
          -0.0021924914319254823,
          0.001286200215915132,
          0.005264508625260895,
          -0.0037758665964020962,
          -0.007814164151642902,
          -0.007076148393925273,
          0.006545746983742953,
          -0.007543458414287161,
          -0.0004715104310941022,
          0.0018732593942883513,
          0.0006947247236369523,
          -0.002526844510940158,
          -0.010612270950318489,
          -0.013578721589437199,
          0.0029445201611936517,
          -0.0015754358841498376,
          -0.0007470122948659935,
          -1.3441525165356618e-06,
          0.0009789485710390807,
          0.0029552536822589287,
          -0.0018197169490236065,
          0.002417768630686371,
          0.004981522037337747,
          0.0015365440788654243,
          -0.006413456954906539,
          -0.0007996017568976392,
          0.005732423997971226,
          0.0005722303043003418,
          0.001441205794694543,
          0.0016092040805582286,
          0.005911120384422195,
          0.0022851757045859893,
          -0.0006659105566843378,
          -0.01201577655411062,
          0.0005043807279373477,
          -0.006792358377563361,
          -0.005310537572774689,
          -0.0009554277271377926,
          0.002825756201067699,
          -0.0005272621137428161,
          0.0039893355963585755,
          0.0012330951245025025,
          0.0017236599047796165
        ],
        [
          -0.0021634855896783926,
          0.0054282039791970615,
          -0.003945646641897288,
          -0.0036553040013044794,
          -0.010134235184849771,
          -0.0028274517581414454,
          -0.007666097521210841,
          -0.006430189636110897,
          -0.0014471043547514767,
          0.0036088272767793965,
          -0.0016639057161258754,
          0.00348875023964035,
          -0.0007923642327159327,
          -0.001380330993227893,
          0.003116361853728008,
          0.005206769761721201,
          0.0057747493358001846,
          -0.007504054288384668,
          -0.005289089286632274,
          -0.007003824408198191,
          0.0024731234648923345,
          -0.009162497800474349,
          -0.002228929861364341,
          0.0037883121534963604,
          -0.00014232736527150866,
          -0.010911412448072392,
          0.01240711888896252,
          0.0021378456098918,
          0.0019291715001828935,
          0.0020340440030717777,
          -0.0009944649154462572,
          -0.0054522873454663145,
          -0.003037043842489124,
          0.002883680067965989,
          1.940169285233328e-05,
          0.00011814391937962615,
          -0.0043777500407017125,
          -0.0005791488399200168,
          -0.003464460586828351,
          0.0023594555850275337,
          -0.0035055861901415494,
          0.0006429943010467325,
          -0.010568942564096353,
          -0.00976907403322208,
          -0.0011997226981994987,
          0.0033954901815299284,
          0.0020144559022988017,
          0.0026774791391166453,
          -0.004431047790252627,
          -0.0072374946759368305,
          -0.006308452559014016,
          -0.002392310127633,
          0.002505659538159734,
          -0.002048728345881086,
          0.0029344220213878692,
          -0.0012476692417116941,
          0.0063846776004102,
          -0.006513835932991317,
          -0.002519436367991574,
          -0.008455464217846804,
          -0.0002086459918866405,
          0.005973808068301567,
          0.0011667677139822834,
          0.004864455905317475,
          -0.006917378706660508,
          0.003972985233108264,
          -0.00463721344284358,
          -0.007614943149315514,
          -0.00022861028018695455,
          -0.0057976775253600855,
          -0.001853107090655359,
          0.0019842214722497913,
          0.004139997830066742,
          0.0009087615636921276,
          -0.004365404049238849,
          0.007190923844867258,
          -0.0062509941690483024,
          -0.0021755289977413027,
          -0.0076401581832167735,
          0.0024783775289071485,
          0.006640711321318546,
          0.000710520780815111,
          -0.004458829269112944,
          -0.005142395556132561,
          0.0070298587674756784,
          -0.005598398177485795,
          -0.00152207724017348,
          -0.007646013302263554,
          -0.010537147531937246,
          0.0002484548849897361,
          -0.002641241769292718,
          0.007013846306308374,
          0.0005698599041909176,
          -0.006054733206444716,
          -0.010112037348562619,
          -0.0004660022356141822,
          0.001774745256496816,
          -0.00633403913160926,
          -0.004724689400026678,
          -0.001891187840851818,
          -0.0008815470030022318,
          -0.004853472666791828,
          -0.004050887438652439,
          0.0033585203591142278
        ],
        [
          0.007651367366266938,
          0.0008697591267718371,
          -0.0063984575516691945,
          0.003437486788004673,
          -0.008906027536329885,
          0.0028107832343456924,
          0.006368770302984674,
          -0.0033241426437143912,
          -0.004833932980887892,
          -0.007664957204130873,
          -0.0024691632996915167,
          -0.005347203584713916,
          -0.009560830475800142,
          -0.000607771041944241,
          0.00027173791870688447,
          0.0011983105845503532,
          0.0023189620526831434,
          -0.0015433311286581776,
          0.0008072264483656987,
          0.0018356914546310745,
          0.010684506486358492,
          -0.005318678531756292,
          -0.0007071911660142279,
          0.00532091856094675,
          0.008725733736945454,
          -0.001079255189188332,
          0.006976026673300026,
          -0.0042613839675956205,
          0.006571193948516178,
          -0.004671217794561064,
          0.00786969291658048,
          -0.0031464533271607837,
          -0.0013412924631969888,
          0.007128161094385016,
          0.001110014029279668,
          -0.003915465255405598,
          0.0012589194783613356,
          0.004754589857017746,
          -0.012846485227455663,
          0.0076258865437051435,
          -0.006169637680296848,
          -0.0072716069462622854,
          0.012254462301579802,
          -0.011113950325043696,
          -0.0027781830358486114,
          0.011686191982162147,
          -0.005574653245241153,
          -0.004192138371373314,
          0.003182105947747966,
          -0.008581977639667495,
          -0.0047255876113424045,
          0.0015813082366478242,
          -0.0008827101965530057,
          -0.004415847526765644,
          -0.0047422310433155096,
          0.0059221472060245256,
          -0.004918422160411671,
          0.001359296808261046,
          -0.003090983904771738,
          -0.0009219528829098246,
          -0.0048083424431615415,
          -0.002223644797907747,
          -0.003784363303291937,
          -0.004325608870960328,
          -0.002266711227342203,
          -0.00153349610515464,
          -0.009955413962799298,
          0.007226849093307627,
          -0.013345628485530347,
          0.001784760389651103,
          -0.004400563328615704,
          -0.0008623978620144331,
          -0.0012814347771118193,
          0.003333586940646047,
          0.00045715609662798986,
          0.004860633310672756,
          -0.0032676642317715217,
          -0.01135008144809819,
          -0.001184255917138911,
          -0.008481530360839876,
          -0.00605418663046964,
          0.0012035659205370803,
          0.00804139441291641,
          -0.0005208531010482748,
          0.0030725622471192682,
          -0.0051658702330649765,
          -0.011217675945344193,
          -0.00020187421841153113,
          -0.004989729791873759,
          -0.003846976657536953,
          -0.007661697073875498,
          -0.0059859110159446935,
          0.0005889793850064123,
          -0.0024903073016951088,
          -0.00021644458883742415,
          0.012861839351964062,
          -0.002131889198625537,
          0.004337844667207671,
          0.005486851408841145,
          -0.00783932699369414,
          -0.004543948270101184,
          -0.003474901507567727,
          -0.00026364946863783093,
          -0.0036643670640173526
        ],
        [
          0.00039948439725370657,
          0.00826823448317498,
          0.0007613397555285204,
          0.0018152589051011888,
          0.006997245557101679,
          -0.001160585948696957,
          0.0014120401603193362,
          0.0017057664080149602,
          -0.0023501334114664806,
          -0.0018320899619171194,
          -0.006684018930594848,
          -0.00021292276669436166,
          0.004940203493557441,
          0.01077695625552234,
          -0.0024739569656215647,
          0.0018772486211738103,
          -0.005367666164615388,
          -0.00442313072568709,
          -0.004918647673785446,
          -0.004566678208871986,
          -0.0014385693313034838,
          -0.005279871286158519,
          0.003757479207379683,
          -0.005843621412646033,
          0.0025042418628160672,
          -0.007417950041540088,
          0.0033225845115804698,
          -0.0037967537766714294,
          -0.0031888402610686416,
          -0.00021192994620291232,
          0.0014305809944481344,
          -0.003590967540826574,
          0.0026172786918311833,
          -0.0023795696279189636,
          0.005722605103307517,
          0.0018302444268670289,
          0.010238075489129327,
          -0.002078660156013946,
          0.000847815454242796,
          0.001189801884199582,
          0.005563620098296256,
          -0.005775768250271398,
          -0.009514935880293604,
          -0.0027293756891880825,
          -0.0006482856612120506,
          -0.0009843462253458547,
          0.0034153722159033675,
          -0.0030660071535334272,
          0.009921403047518894,
          0.00243668233333503,
          0.0005048830300036047,
          -0.0042750937698445525,
          -0.004362439524111933,
          -0.0003533857336574757,
          0.004796519086028786,
          -0.003525655425846611,
          0.0007594346149451221,
          -0.0023243143092307504,
          -0.0031243264362574795,
          0.001949965090335219,
          0.009521006118211554,
          0.00033566479367000597,
          -0.002532164980852125,
          0.001516383954050803,
          0.004100128299449787,
          0.005405724640869472,
          0.004438980107040971,
          -0.004001555587221631,
          -0.004806394367905872,
          0.004081826901349475,
          0.007033185187766022,
          0.007915842831086164,
          -0.005088149289884246,
          0.002217940275342689,
          0.006469132006406479,
          -0.0012943032986299117,
          0.0056163579256355255,
          0.0046689380099915155,
          -0.009402973554870733,
          0.003071327666306404,
          0.0035888603026798817,
          0.003730334302716901,
          -0.003503715334911506,
          -0.008660664957660451,
          -0.004225826179762509,
          0.0028174398482328517,
          0.01015049255660767,
          0.00023940916393591223,
          -0.00873734573554366,
          -0.0007103766519856795,
          -0.0011411740917714297,
          0.00553061080604768,
          0.003818911846152905,
          0.008347292781166945,
          0.009779785707171074,
          0.003401499069706446,
          0.000659895316084588,
          0.011342549256502832,
          -0.0012305296559982064,
          -0.005493349768303364,
          0.0061618239787766425,
          0.0017802808167297637,
          -0.0005096838011343084,
          -0.0035877889200624227
        ],
        [
          -0.006187748659415061,
          -0.007895776903090618,
          -0.001966528493770553,
          -0.0018425218253722631,
          0.0006316399480252707,
          -0.0030354606305249385,
          -0.006330699494975933,
          0.0054559725176829,
          -0.009134741596239844,
          -0.006930565223220456,
          -0.009779247110325628,
          0.0022551455565880947,
          0.003763917536128192,
          -0.0030319937471294895,
          -3.093644251162434e-05,
          0.004077761638494377,
          -0.0017218849248625751,
          -0.000757216136551938,
          0.001322241378560951,
          -0.009825513436854763,
          0.0044636813066687465,
          0.0015990753782926684,
          -0.0005460783317047877,
          -0.0038330194329605507,
          0.0026558858738470496,
          0.005673434172541403,
          -0.0062734847140334836,
          0.00016266990539805665,
          0.0021257908009739623,
          -0.008195840891831811,
          0.005396738473564607,
          -0.002064642744059956,
          -0.005248572975587755,
          -0.0060113863100361205,
          -0.013871227455204211,
          -0.00694809523386748,
          -0.0066403783682215355,
          -0.005579129390925015,
          -0.005479010731945341,
          0.0036534006761873763,
          -0.002517915064232649,
          -0.011094125693431897,
          5.162980068560547e-05,
          -0.012631348596571536,
          -0.007273147995877108,
          -0.008196781960171512,
          -0.0020513016683198883,
          -0.007550522276303399,
          0.0023241909774311866,
          -0.0025412350406406573,
          -0.004817985995361532,
          -0.001361094868979455,
          0.006350074276609028,
          -0.0028716974110166303,
          -0.0015426538583748642,
          0.003837304801880225,
          0.00887407232518204,
          -0.007477125792132404,
          -0.004559898808150903,
          0.008438108800518028,
          0.0021182204394442445,
          -0.006399839876729709,
          -0.0024117154802792574,
          0.0023645296662137805,
          -0.0034388420048454037,
          0.003479759326220033,
          0.0017740530142089182,
          -0.0009151340670359131,
          -0.008143007403396962,
          -0.00403676394145158,
          -0.006314189183022676,
          0.002817795473168796,
          0.0011461783691875148,
          -0.0021267723512833794,
          0.0010960404887514624,
          -0.003359395054641772,
          0.0017841924223071868,
          0.0012908905513056936,
          -0.0076587826144359295,
          -0.0024622390133321884,
          -0.005730626339886822,
          -0.002798283058705591,
          -0.004314847595641013,
          0.005251951651467348,
          0.0006152275021423274,
          -0.0028886005546592823,
          -0.006263222985391216,
          0.0019181507332438135,
          -0.005571658030275719,
          -0.00981347871258233,
          -0.007087030247187014,
          -0.0005731425504613365,
          0.0033998664070755934,
          0.0005647589316447511,
          0.00424542432603449,
          0.003290248314970455,
          0.011931256606228301,
          -0.0020282456467376323,
          -0.00022795814080402258,
          -0.0026982006013585354,
          -0.00789956964814303,
          -0.0027295261060847676,
          -0.00019518014120094925,
          -0.005029732798728564
        ],
        [
          0.006142631650826282,
          -0.003927655583384209,
          -0.006343723098728144,
          0.0012955995767522893,
          -0.008920277244592205,
          -0.0031390045605255755,
          0.0023250249585139177,
          -0.004467016369514742,
          -0.0004614260406453913,
          0.0026488597255591604,
          -0.006638924511135841,
          -0.0038628830268596153,
          0.0028809509755828196,
          -0.008405610864209162,
          -0.004314227827098165,
          0.006675315009985201,
          0.0046912407818350856,
          -0.00814692650989051,
          0.0006950984472335874,
          -0.0014091216250361202,
          0.00027516041651105567,
          -0.005001359202624788,
          -0.00016150926501292832,
          0.0030382672798731666,
          -0.0025762047264638035,
          0.00443950393797798,
          -0.0021909564250989395,
          -0.005360597288187249,
          0.010898004405914897,
          0.002593297557274027,
          0.00586658268637586,
          0.010200887786288597,
          -0.0021290620329718845,
          -0.01018949679586485,
          0.003523893547260155,
          -0.0026498507039588214,
          -0.004985031575034306,
          -0.005241605797336224,
          -0.004379563099297618,
          -0.01058635665977354,
          -0.0012966925132295124,
          -0.009209044616663876,
          -0.002910792427106274,
          -0.0038952186423967918,
          0.010605576619583784,
          0.004138168207619419,
          0.0040004670655953605,
          -0.005460208875602684,
          0.00947794571498881,
          0.0021595551168386183,
          0.00185458019577261,
          0.004210774036137984,
          0.0021934512276024208,
          -0.005091656178789504,
          0.0021755140039591966,
          0.003926798684682795,
          -0.00644752739041046,
          -0.0021180464571240063,
          0.002664786557179805,
          0.005487723545063312,
          -0.0015484397962872516,
          0.002937348707742899,
          -0.0014982336750765878,
          0.004053977752615574,
          -0.007805218977567582,
          0.006199591072227734,
          0.0024531527198720145,
          0.005725384896685781,
          -0.0103804156060448,
          -0.003363990969998524,
          0.001117590051893066,
          0.005910116872949322,
          -0.0005670279817211156,
          0.009716189718460493,
          0.0022237947408646347,
          0.0028847110005948856,
          -0.0004134158993640272,
          -0.010547302518991835,
          -0.006454794236573946,
          0.00932929524690605,
          -0.00031731191639322804,
          -0.0027107719099643056,
          -0.0010530897239497765,
          0.0016671284565843126,
          -0.0063481535167389325,
          -4.533431465687858e-05,
          -0.005041112754722735,
          0.003846566659368083,
          -0.003915610760519148,
          -0.004724144411880359,
          0.0012219408919145417,
          -0.011616531138667702,
          -0.0008902862664447973,
          0.00319231979933539,
          -0.011702504418249039,
          -0.0038442382949873946,
          -0.0022069517814620344,
          0.011255408041598669,
          0.0013612415578793393,
          0.0077821149510028075,
          -0.006141079980794341,
          0.00015234590921355332,
          0.00045997260402655507,
          0.0054412805812780116
        ],
        [
          0.0026783977858570126,
          -0.007186716520467482,
          -0.0024196271499040767,
          0.0028914924618548923,
          -0.005343327553816273,
          -0.0029667918504954088,
          -0.006136345802375327,
          -0.006072061527300972,
          -0.0009590564544933865,
          0.005298356990931128,
          0.005873902419091855,
          0.010844223120225935,
          -0.0033373773199705916,
          -0.0015838059964519697,
          -0.0006977611269227378,
          -0.005196804746485304,
          0.0058178557982295,
          -0.0012072288642391872,
          0.006987359602418575,
          -0.0072308084048122905,
          -0.005459113422698099,
          -0.0036856351728188842,
          -0.004873559067358288,
          -0.0067267130855696,
          -0.005512224055994845,
          -0.005580278152611822,
          -0.0026458340961274932,
          -0.0056274287985246425,
          0.011256515990963223,
          1.998626762925059e-05,
          0.005375362476918795,
          -0.0005792887458975374,
          0.007695287326512402,
          -0.002834387453517071,
          0.003602861240415186,
          0.0008807526152247046,
          -0.002343199137483101,
          0.0012858914581865104,
          -0.003420163545414694,
          0.0008424405771742171,
          -0.0027777546119667484,
          -0.0003924844181436576,
          -0.011837238321527246,
          0.0001555485700899911,
          0.0014679583276713559,
          -0.00960177057410683,
          0.005395746356982031,
          0.0010490692750191942,
          -0.0028677083939792113,
          0.0027091858661386302,
          -0.0003538935686482178,
          0.0034996275067530388,
          0.0006909833997631037,
          0.006083723255029245,
          -0.003481188579865646,
          0.005648532601034927,
          -0.0008256605996570085,
          -0.009311462537921703,
          -0.000321160407316307,
          -0.0015716018144488347,
          -0.008556030616292579,
          0.005928843306608759,
          -0.001297569299493123,
          0.0060193682287783224,
          -0.007152290150541457,
          0.0026057488468673564,
          0.004245143250352816,
          0.00046590625998976033,
          -0.005321658980994116,
          -0.004117665960317266,
          -0.006225068695772074,
          -0.003972154212190209,
          0.00624770514850781,
          0.0032050967897867084,
          0.0004810001524772306,
          -0.007615595972099296,
          0.0019921342427259505,
          0.008577847467533938,
          -0.006840754106688847,
          0.004493317580388505,
          -0.0007875677179879555,
          0.001596560307677431,
          -0.008348535425832556,
          0.006433490642593792,
          -0.0016169690938274079,
          -0.00018222043483989394,
          -0.007111684196305279,
          -0.0014983758348215916,
          -0.007093782551848978,
          -0.0007295490427830524,
          -0.0032341636470377046,
          -0.008614628275621906,
          3.593880430424862e-05,
          -0.0009899991080637844,
          -0.0008251159933742561,
          -0.008364030384496252,
          0.004369951819397357,
          -0.006341343185524827,
          -0.0029955837099373854,
          -0.002259926946585771,
          0.0008858260424811512,
          0.004986480438765211,
          0.0018265639014231369,
          -0.0015512265404586162
        ],
        [
          0.0005673902843865064,
          0.0008903598924966442,
          0.00525640393482302,
          -0.004742613246753342,
          -0.009986518600921482,
          -0.008205214097676269,
          -0.0038208215369059636,
          -0.012478445638804831,
          0.008053440002619908,
          0.0024921445715766796,
          0.005075562997706566,
          0.004976844424998117,
          -0.0005605938432097261,
          0.0034665842003199295,
          -0.002898707026693264,
          0.004571940365685029,
          -0.0012322136505234053,
          0.003816656008200288,
          -0.009442219088934731,
          0.0017685827560780846,
          0.004521157872976484,
          -0.004643017504034015,
          -0.0017380727546489599,
          0.006949093628989877,
          -0.0014520682373871934,
          0.0009701238505628588,
          -0.002189458471761585,
          0.0019809649953242943,
          0.008397036294164233,
          -0.00575072719480115,
          -0.003099933435699211,
          0.007864624626357475,
          -0.0036923318460271868,
          0.0019924389878003836,
          -0.010078674375421919,
          -0.0020746852229710276,
          0.003681281705210657,
          -0.010400913242383658,
          -0.005779183716303573,
          0.004696072978472905,
          0.0048003411361587115,
          0.008105297315614195,
          -0.0009895696040484717,
          0.0003567899800054895,
          -0.0006918952582802404,
          -0.0026613977704667614,
          0.006577681210534142,
          -0.003054610441380695,
          0.0005628908468006956,
          0.00040681211153593055,
          -0.01569440508103421,
          -0.002288582692234172,
          0.00480323312960331,
          -0.002577233608784429,
          -0.0011818615411206932,
          0.004379720525062935,
          -0.001370829925746006,
          0.0005037256510603904,
          -0.0013774199885105303,
          0.008635333633863271,
          -0.0027392027082748884,
          0.0036143114572035153,
          0.00022943256190156077,
          0.0053296552056664726,
          -0.0009115091402482165,
          0.0015179030636349661,
          -0.008140067100021001,
          0.002123650364930505,
          0.0004126755907955608,
          0.011137124144329165,
          -0.002695301086259723,
          0.003151769475178767,
          -0.00486693966118875,
          -0.011247403448161017,
          -0.0026120997938819863,
          0.00046513352543866524,
          -0.007337143520455467,
          -0.0042394712165599825,
          -0.0031433391136760727,
          0.0027510104587931336,
          0.004762528581518486,
          -0.0035211436384396753,
          -0.008730118520837988,
          0.0032465819758543193,
          -0.004785205140157189,
          0.006596986490757826,
          -0.005699784585142894,
          -0.0018531271613817799,
          0.008529150461817481,
          0.0012385365763746487,
          -0.00789012483965148,
          0.006709408147530991,
          -0.0038765811590430006,
          -0.0009343884445800084,
          -0.0016383763010390804,
          0.0012337463733080242,
          -0.0015523007003946545,
          -0.002250422826514275,
          -0.005249806533003212,
          0.0015080159105800676,
          0.009844432825181267,
          -0.0003067773909410796,
          -0.0008066987367786613,
          0.00449936748438029
        ],
        [
          -0.0010745335144797055,
          0.0047474357217183296,
          0.00735974064933931,
          -0.002192113127995452,
          -0.0036006902789929435,
          -0.012138137959303881,
          -0.001452649953422527,
          -0.010080905546718704,
          6.117412890638591e-05,
          -0.005550574286490071,
          0.000840356851453925,
          0.006707990664665256,
          0.0013335636555465529,
          0.0006816583844596796,
          -0.006649338386311639,
          0.005744573291195893,
          0.0031871461176310426,
          -0.004299451684031868,
          -0.0021630417827323348,
          0.004484000307638801,
          -0.004176566503024291,
          0.005109468861711574,
          0.008347048066576311,
          0.00967356602348778,
          0.0060061196751609045,
          -0.0005751130268585445,
          0.004851786637333042,
          0.0035198962121439996,
          0.0002071823977050827,
          0.002072050242654485,
          -0.0006960064072442792,
          0.009045897082784582,
          -0.0036996880940518085,
          -0.00781870646042959,
          -0.0036957482851376652,
          0.01452696905255719,
          -0.0009703392571050798,
          -0.00486803661770152,
          -0.005764534537365736,
          0.012345551572706129,
          -0.003140540558141376,
          -0.007197520355171298,
          0.001751131827833158,
          -0.005948672757302564,
          -0.0017746017540320712,
          -0.001741346626785072,
          0.003129514696901737,
          -0.01115830142815559,
          -9.123141226117005e-06,
          -0.004548893513664016,
          0.0060773402050452304,
          -0.002763062045773103,
          0.0058140612731926895,
          -0.002625114029456548,
          -6.731856540178433e-05,
          0.0023559953903187296,
          -0.008874635285069966,
          0.011137797196038721,
          0.005566887362506587,
          -0.007340818544982263,
          0.00615694812384498,
          0.00550491217089925,
          0.004600006413825531,
          -0.0004924452897023801,
          -0.004928611679621465,
          0.003632068560055045,
          0.0008541733201258374,
          -0.003153803589666043,
          0.0014595647181329925,
          0.0015770879020641523,
          0.003020364723151019,
          -0.0029154399306297843,
          0.003540864849790322,
          0.0018889243157033469,
          -0.004065481920332013,
          -0.005906782420060291,
          0.00017963847444790276,
          0.004533082827120466,
          0.00197089854497963,
          -0.0013418834610869797,
          0.0028376171248946777,
          -0.009295334418481077,
          -0.001208600375970066,
          -0.0011206209412491543,
          0.0031416897843896045,
          -0.002462922579136091,
          0.003276481106406785,
          -0.0034273123727072414,
          0.009609259170578385,
          0.00339257316558484,
          -0.0019257315351127267,
          -0.0071099972319331965,
          -0.001600517124001908,
          -0.004148787624622248,
          -0.009328935263079013,
          0.003363532080498633,
          0.0049683550969741724,
          0.0038323419954114685,
          -0.006338538063019935,
          -0.003651002696361394,
          0.0017544365160755513,
          0.0036082726629650314,
          -0.016542629684599564,
          -0.0032957880338178604
        ],
        [
          0.0014494423031677919,
          -0.004057955774240451,
          0.005039025130458114,
          -0.0004123071356845477,
          -0.0070352976942316585,
          -0.002371723270258641,
          -0.001505941241477141,
          0.0032960293394339256,
          0.007282739306594495,
          -0.009129335673080108,
          0.0013715481153936094,
          0.002930650825674236,
          -0.0016852266070076867,
          -0.004412983988657658,
          0.0015959150336270049,
          -0.005055272269249496,
          0.002217891203007578,
          -0.009983211873524418,
          0.0028064847626026166,
          -0.006597057681668787,
          0.007067386884829595,
          0.0022269634202937193,
          0.0023364693743117976,
          0.008441855025132665,
          0.0009800666215159183,
          -0.004417775666565978,
          0.00011697594892773816,
          -0.001466039728342161,
          -0.009598491631399891,
          0.0023486831735809173,
          -0.005670259414744105,
          -0.004895891469024441,
          -0.0023367620960704034,
          0.0013238591215472971,
          0.0004986439448418982,
          -0.005228848845946999,
          0.005305093491202682,
          0.004340375836933424,
          -0.0042926253466355644,
          0.00783912750999701,
          -0.001072079228888264,
          -0.0008798714882957598,
          0.004645382307493534,
          -0.0037288961442164454,
          0.007285087474688189,
          0.003894452339142799,
          -0.004987707382900578,
          0.003411385816208541,
          0.002277541562699512,
          5.982228934337463e-05,
          -0.007901019889585385,
          -0.004548565582126027,
          -0.0048663812708352235,
          0.005203931597243128,
          -0.0028738038012915833,
          0.00306469350459476,
          0.0003776166835415151,
          0.0009990352709634167,
          0.001266595390579748,
          -0.00039591375807351825,
          0.0056665520798866095,
          -0.0023294993850132358,
          -0.005251476600242446,
          0.006134726887578445,
          0.0025950199014551836,
          0.010670090823997055,
          -0.007008206751163703,
          0.000930092109047351,
          -0.00940805702386708,
          0.003922632591146458,
          -0.005916287224465074,
          0.00024669352863440836,
          0.00031510973186677687,
          -0.0003444282310551763,
          -0.00038764058207728673,
          0.0068755772375627185,
          -0.005048989178463906,
          0.0009357308728383331,
          -0.0084866131859551,
          -0.008828610956836406,
          -0.00565710896520429,
          0.004737825537550525,
          0.0008966663198718683,
          0.00203797444982874,
          0.004865888300385908,
          -0.0022207311686880745,
          0.0043772175248119665,
          0.002406786465333026,
          -0.0010959904518376515,
          0.0020400463946585318,
          1.3988703159493592e-05,
          -0.0039069401754890315,
          0.000956735038594957,
          0.00275277146925515,
          0.002482112254006734,
          0.006445081452088463,
          -0.005271769922486598,
          0.00808098037645785,
          0.009692727105634482,
          -0.004237308586568938,
          0.0030724026694588912,
          0.005660170978299786,
          0.0012570415739076054,
          0.005127141065343346
        ],
        [
          0.006089054287239,
          -0.0031417181550032515,
          -0.005545335848663036,
          -0.0046196330570995705,
          -0.0011306587229268112,
          0.005978031127094137,
          -0.006203477096454597,
          0.008605168721834155,
          0.002233099210095466,
          0.004497449188728346,
          0.002043166445128967,
          -0.0037819078579079714,
          -0.0002145623759131486,
          -0.0029627761249593483,
          0.0034043724409195566,
          0.0026202415583619692,
          0.004880119896325338,
          0.0022211417259005084,
          -0.00860281608014866,
          -0.0006683688683760906,
          -0.00473430914935964,
          -0.004814971324852943,
          -0.004490287085351045,
          -0.0011904960661716687,
          0.0023089891523874933,
          -0.0013596631333855876,
          -0.0014030668309471409,
          -0.004003385151932158,
          -0.003219877888232075,
          -0.003971052952076746,
          0.0005626931914470748,
          0.007429541202807824,
          0.006307681716777001,
          -0.007451791744915767,
          0.0011318930773735513,
          -0.0004902815014639127,
          0.007053598595401709,
          0.006794971125851576,
          -0.006523761585257453,
          0.004406366230969176,
          -0.0003989473992822328,
          -0.0025704141436989933,
          0.0053245942310575075,
          0.00706582316235211,
          -0.004048741134813033,
          0.002930648972896292,
          -0.007413897472163734,
          -0.009934608597074334,
          0.00432608026978278,
          0.0028860708518019165,
          -0.010194059807561943,
          -0.0044114269575458685,
          0.001891993802120579,
          0.0009505006874025945,
          0.005389570604860827,
          0.0016778713966746999,
          -0.002534110092256031,
          0.0036390786629996526,
          0.00041233351161241386,
          -0.003912632914917805,
          0.00017293381963035708,
          -0.005106375331330876,
          -0.009088880964180169,
          -0.0030802876341443674,
          0.007321861343071442,
          -0.0015505581702903207,
          0.002681280680453319,
          -0.003370475241922904,
          0.006064222989229562,
          0.0014956246358403089,
          -0.008985504146895217,
          0.011749868550669184,
          0.004182851671506902,
          -3.103100384084967e-05,
          0.002302370286095493,
          0.008835143420578616,
          -0.003282200190829219,
          -0.007134776329652209,
          0.0022423680012373737,
          -0.0029965728912832463,
          -0.0007945840232436768,
          -0.010956648163896661,
          -0.002327318322410464,
          0.012539000841751555,
          -0.007839672202991855,
          -0.0009108659690590488,
          -0.003574390189488905,
          0.011177375244045298,
          0.0008642721256354371,
          -0.00792254175100045,
          -0.0031934660368715326,
          0.0023827518711125716,
          0.0074235571946636315,
          -0.0005362685799514773,
          -0.007991075992596046,
          -0.001767673897046724,
          0.0033379837086404745,
          -0.00419969060936308,
          -0.0002324055526398661,
          -0.0027047949330956784,
          0.00552168077684991,
          0.003937428294910619,
          -0.0015357846100061087,
          -0.009302952806220054
        ],
        [
          0.0047946066101695085,
          -0.002542151614238733,
          -0.0059285793009421685,
          0.003516208754429312,
          -0.00844537631231402,
          0.005037468900105251,
          -0.0007704071877291294,
          0.00011815154986967457,
          -0.0034498234594678794,
          -0.003582712983059678,
          0.006656404022755395,
          0.004670648776095139,
          -0.003377468622505071,
          0.004315717552258909,
          0.003362455966809692,
          0.0005968114250126649,
          0.004867841105591279,
          0.004694337402751495,
          -0.00858899119910368,
          0.004646877444973771,
          7.639878121517053e-05,
          0.004543966025832215,
          0.00011268392488199828,
          0.0014777052774284866,
          0.0016617632112891317,
          -0.004322857376428949,
          -0.005974704606086127,
          -0.0006915238087252743,
          7.463634203216678e-05,
          0.0023870893622006304,
          -0.004179906022564473,
          -0.006995877272515272,
          -0.002931745703644697,
          0.007133795050067345,
          0.003290631664856515,
          -0.005409735900128839,
          -0.015305741864575846,
          -0.00042349349638999757,
          0.006895907075983958,
          -0.001952866014213796,
          0.0031112275516855777,
          7.93928534292442e-05,
          0.002934207248753931,
          -0.00535341004406085,
          0.002545647602924576,
          0.003601722591212538,
          -0.0015213428939230157,
          -0.0036400372316979066,
          -0.0011421983083791133,
          0.001963226366674529,
          -0.001436478507306554,
          0.001375804364087109,
          -0.002303809384602239,
          0.004984879334433499,
          -0.004001636809855962,
          -0.0007870935178685162,
          -0.0002331041783041805,
          -0.002341134063023686,
          0.0020717324031715133,
          -0.003214541544255115,
          -0.0017336131016825846,
          0.007275625358074076,
          0.0004369454310073935,
          0.005251613323612398,
          -0.0019825579010926747,
          0.00045658319188838955,
          2.2153518106969954e-05,
          -0.004570995723580426,
          -0.0071126694809858565,
          0.0027026030011636885,
          0.014318498823023714,
          0.004698450400651164,
          0.0017690865062714165,
          0.006999826858335583,
          0.0009239520194292706,
          0.005128518526067015,
          0.001482956652682034,
          0.007673822616252927,
          -0.0019733677659200324,
          0.0018302873540132273,
          0.00033134458048040253,
          -0.0027694990748161814,
          -0.005736292618300576,
          -0.0009419062307754972,
          0.0058008937653217935,
          0.0043294394084995224,
          0.0006993510822497547,
          0.004475441673303235,
          -0.001015986111543382,
          -0.00303886417907267,
          -0.004873920828062806,
          0.005850206372952831,
          0.005419652966629811,
          0.0033953889692367734,
          0.0025096396839795606,
          -0.0030032138815680636,
          -0.001778580080968692,
          -0.005181118106620637,
          -0.0025692621606076085,
          -0.0026073757338937625,
          -0.002124218019672748,
          0.008246249474232761,
          -0.002506022960623127,
          0.0070075012981062985
        ]
      ]
    },
    {
      "ObjectType": "DenseLayer",
      "Metadata": {
        "InputDim": 20,
        "OutputDim": 1,
        "Activation": "Sigmoid"
      },
      "Data": [
        [
          -0.0012519111708558881,
          0.0017369143453013268,
          0.005990552537469192,
          0.008479209794889126,
          -0.0045304444312216805,
          0.0033956212890669337,
          0.004025543030941317,
          -0.003809271026546657,
          -0.0031166024555823566,
          -0.008595056523835805,
          -0.011483007271747255,
          0.010492958258528032,
          -0.0065832798815346535,
          -0.002904328049188043,
          -0.01599412482366997,
          0.0002569096035889833,
          -0.002339150254484024,
          -0.001912984441560055,
          0.00558676796408169,
          -0.0012545030410246257,
          0.0017736926982084374
        ]
      ]
    }
  ]
}
