{
  "ObjectType": "ProblemSet",
  "SolvingMethod": "FeatureBased",
  "EvalType": "UnusedStorageArea",
  "Evaluations": [
    0.20632083333333334,
    0.14187708333333332,
    0.13564166666666666,
    0.211825,
    0.2394,
    0.3935739583333333,
    0.16002916666666667,
    0.14008333333333334,
    0.0864,
    0.13298333333333334
  ],
  "Data": [
    {
      "W": 1200,
      "H": 800,
      "x": [
        0,
        215,
        430,
        645,
        860,
        0,
        0,
        362,
        700
      ],
      "y": [
        0,
        0,
        0,
        0,
        0,
        362,
        577,
        362,
        362
      ],
      "w": [
        215,
        215,
        215,
        215,
        215,
        362,
        362,
        338,
        338
      ],
      "h": [
        362,
        362,
        362,
        362,
        362,
        215,
        215,
        293,
        293
      ],
      "storage": {
        "sumArea": 198068,
        "w": [
          338,
          360,
          362
        ],
        "h": [
          293,
          334,
          215
        ],
        "n": [
          2,
          0,
          0
        ]
      }
    },
    {
      "W": 1200,
      "H": 800,
      "x": [
        0,
        331,
        0,
        579,
        881
      ],
      "y": [
        0,
        0,
        411,
        302,
        302
      ],
      "w": [
        331,
        579,
        579,
        302,
        302
      ],
      "h": [
        411,
        302,
        302,
        451,
        451
      ],
      "storage": {
        "sumArea": 136202,
        "w": [
          302,
          302,
          331
        ],
        "h": [
          451,
          579,
          411
        ],
        "n": [
          1,
          0,
          0
        ]
      }
    },
    {
      "W": 1200,
      "H": 800,
      "x": [
        0,
        221,
        442,
        663,
        0,
        348,
        696,
        696
      ],
      "y": [
        0,
        0,
        0,
        0,
        440,
        440,
        277,
        441
      ],
      "w": [
        221,
        221,
        221,
        348,
        348,
        348,
        397,
        348
      ],
      "h": [
        440,
        440,
        440,
        277,
        277,
        277,
        164,
        277
      ],
      "storage": {
        "sumArea": 130216,
        "w": [
          348,
          397,
          440
        ],
        "h": [
          277,
          164,
          221
        ],
        "n": [
          0,
          2,
          0
        ]
      }
    },
    {
      "W": 1200,
      "H": 800,
      "x": [
        0,
        265,
        530,
        0,
        795,
        444
      ],
      "y": [
        0,
        0,
        0,
        492,
        0,
        492
      ],
      "w": [
        265,
        265,
        265,
        444,
        229,
        444
      ],
      "h": [
        492,
        492,
        492,
        229,
        444,
        229
      ],
      "storage": {
        "sumArea": 203352,
        "w": [
          335,
          444,
          492
        ],
        "h": [
          407,
          229,
          265
        ],
        "n": [
          0,
          2,
          0
        ]
      }
    },
    {
      "W": 1200,
      "H": 800,
      "x": [
        0,
        333,
        562,
        791,
        0,
        229,
        458,
        687,
        916
      ],
      "y": [
        0,
        0,
        0,
        0,
        429,
        429,
        297,
        297,
        297
      ],
      "w": [
        333,
        229,
        229,
        229,
        229,
        229,
        229,
        229,
        229
      ],
      "h": [
        429,
        297,
        297,
        297,
        297,
        297,
        297,
        297,
        297
      ],
      "storage": {
        "sumArea": 229824,
        "w": [
          297,
          429,
          912
        ],
        "h": [
          229,
          333,
          252
        ],
        "n": [
          0,
          0,
          1
        ]
      }
    },
    {
      "W": 1200,
      "H": 800,
      "x": [
        0,
        0,
        777,
        978
      ],
      "y": [
        0,
        510,
        0,
        0
      ],
      "w": [
        201,
        777,
        201,
        201
      ],
      "h": [
        510,
        204,
        510,
        510
      ],
      "storage": {
        "sumArea": 377831,
        "w": [
          510,
          587,
          777
        ],
        "h": [
          201,
          199,
          204
        ],
        "n": [
          1,
          1,
          1
        ]
      }
    },
    {
      "W": 1200,
      "H": 800,
      "x": [
        0,
        255,
        510,
        765,
        0,
        446,
        706,
        966
      ],
      "y": [
        0,
        0,
        0,
        0,
        446,
        446,
        446,
        446
      ],
      "w": [
        255,
        255,
        255,
        255,
        446,
        260,
        260,
        230
      ],
      "h": [
        446,
        446,
        446,
        446,
        255,
        230,
        230,
        260
      ],
      "storage": {
        "sumArea": 153628,
        "w": [
          260,
          398,
          446
        ],
        "h": [
          230,
          386,
          255
        ],
        "n": [
          0,
          1,
          0
        ]
      }
    },
    {
      "W": 1200,
      "H": 800,
      "x": [
        0,
        0,
        820,
        0,
        0
      ],
      "y": [
        0,
        270,
        0,
        440,
        604
      ],
      "w": [
        526,
        820,
        378,
        820,
        820
      ],
      "h": [
        270,
        164,
        440,
        164,
        164
      ],
      "storage": {
        "sumArea": 134480,
        "w": [
          378,
          526,
          820
        ],
        "h": [
          440,
          270,
          164
        ],
        "n": [
          0,
          0,
          1
        ]
      }
    },
    {
      "W": 1200,
      "H": 800,
      "x": [
        0,
        216,
        432,
        648,
        904,
        0,
        360,
        684,
        940
      ],
      "y": [
        0,
        0,
        0,
        0,
        0,
        476,
        476,
        324,
        324
      ],
      "w": [
        216,
        216,
        216,
        256,
        256,
        360,
        324,
        256,
        256
      ],
      "h": [
        476,
        476,
        476,
        324,
        324,
        221,
        256,
        324,
        324
      ],
      "storage": {
        "sumArea": 82944,
        "w": [
          256,
          360,
          476
        ],
        "h": [
          324,
          221,
          216
        ],
        "n": [
          1,
          0,
          0
        ]
      }
    },
    {
      "W": 1200,
      "H": 800,
      "x": [
        0,
        275,
        550,
        825,
        0,
        0,
        316,
        316,
        586,
        856,
        856
      ],
      "y": [
        0,
        0,
        0,
        0,
        270,
        540,
        270,
        472,
        472,
        270,
        472
      ],
      "w": [
        275,
        275,
        275,
        275,
        275,
        316,
        316,
        270,
        270,
        316,
        270
      ],
      "h": [
        270,
        270,
        270,
        270,
        270,
        202,
        202,
        275,
        275,
        202,
        275
      ],
      "storage": {
        "sumArea": 127664,
        "w": [
          270,
          316,
          688
        ],
        "h": [
          275,
          202,
          205
        ],
        "n": [
          0,
          2,
          0
        ]
      }
    }
  ]
}
