{
  "ObjectType": "ProblemSet",
  "SolvingMethod": "FeatureBased",
  "EvalType": "UnusedStorageArea",
  "Evaluations": [
    0.0,
    0.3731,
    0.4367083333333333,
    0.1918125,
    0.29315625,
    0.22125,
    0.20913541666666666,
    0.354384375,
    0.23771458333333334,
    0.16980520833333335
  ],
  "Data": [
    {
      "W": 1200,
      "H": 800,
      "x": [
        0,
        0,
        206,
        206,
        629,
        629,
        206,
        683
      ],
      "y": [
        0,
        372,
        0,
        240,
        0,
        240,
        480,
        480
      ],
      "w": [
        206,
        206,
        423,
        423,
        423,
        423,
        477,
        477
      ],
      "h": [
        372,
        372,
        240,
        240,
        240,
        240,
        270,
        270
      ],
      "storage": {
        "sumArea": 0,
        "w": [
          240,
          270,
          372,
          398,
          800
        ],
        "h": [
          423,
          477,
          206,
          214,
          282
        ],
        "n": [
          0,
          0,
          0,
          0,
          0
        ]
      }
    },
    {
      "W": 1200,
      "H": 800,
      "x": [
        0,
        0,
        915,
        915,
        0,
        336,
        672
      ],
      "y": [
        0,
        336,
        0,
        336,
        575,
        575,
        575
      ],
      "w": [
        181,
        915,
        181,
        264,
        336,
        336,
        336
      ],
      "h": [
        336,
        171,
        336,
        239,
        181,
        181,
        181
      ],
      "storage": {
        "sumArea": 358176,
        "w": [
          250,
          264,
          264,
          336,
          915
        ],
        "h": [
          374,
          219,
          239,
          181,
          171
        ],
        "n": [
          0,
          3,
          1,
          2,
          0
        ]
      }
    },
    {
      "W": 1200,
      "H": 800,
      "x": [
        0,
        303,
        606,
        909
      ],
      "y": [
        0,
        0,
        0,
        0
      ],
      "w": [
        303,
        303,
        303,
        180
      ],
      "h": [
        450,
        450,
        450,
        555
      ],
      "storage": {
        "sumArea": 419240,
        "w": [
          258,
          272,
          331,
          450,
          555
        ],
        "h": [
          302,
          588,
          274,
          303,
          180
        ],
        "n": [
          1,
          1,
          2,
          0,
          0
        ]
      }
    },
    {
      "W": 1200,
      "H": 800,
      "x": [
        0,
        328,
        656,
        0,
        0,
        428,
        856
      ],
      "y": [
        0,
        0,
        0,
        357,
        574,
        357,
        357
      ],
      "w": [
        328,
        328,
        328,
        428,
        428,
        428,
        310
      ],
      "h": [
        357,
        357,
        357,
        217,
        217,
        217,
        297
      ],
      "storage": {
        "sumArea": 184140,
        "w": [
          279,
          310,
          328,
          428,
          475
        ],
        "h": [
          363,
          297,
          357,
          217,
          340
        ],
        "n": [
          0,
          2,
          0,
          0,
          0
        ]
      }
    },
    {
      "W": 1200,
      "H": 800,
      "x": [
        0,
        0,
        0,
        305,
        548,
        791,
        305,
        659
      ],
      "y": [
        0,
        306,
        612,
        0,
        0,
        0,
        306,
        306
      ],
      "w": [
        243,
        243,
        305,
        243,
        243,
        243,
        354,
        354
      ],
      "h": [
        306,
        306,
        170,
        306,
        306,
        306,
        265,
        265
      ],
      "storage": {
        "sumArea": 281430,
        "w": [
          255,
          265,
          305,
          306,
          777
        ],
        "h": [
          185,
          354,
          170,
          243,
          218
        ],
        "n": [
          0,
          3,
          0,
          0,
          0
        ]
      }
    },
    {
      "W": 1200,
      "H": 800,
      "x": [
        0,
        0,
        0,
        241,
        241,
        241,
        241,
        483,
        483,
        725,
        483,
        778
      ],
      "y": [
        0,
        249,
        498,
        0,
        249,
        412,
        575,
        0,
        163,
        0,
        371,
        371
      ],
      "w": [
        241,
        241,
        241,
        241,
        242,
        242,
        242,
        242,
        242,
        283,
        295,
        295
      ],
      "h": [
        249,
        249,
        249,
        249,
        163,
        163,
        163,
        163,
        163,
        371,
        240,
        240
      ],
      "storage": {
        "sumArea": 212400,
        "w": [
          240,
          242,
          249,
          283,
          433
        ],
        "h": [
          295,
          163,
          241,
          371,
          259
        ],
        "n": [
          3,
          0,
          0,
          0,
          0
        ]
      }
    },
    {
      "W": 1200,
      "H": 800,
      "x": [
        0,
        0,
        416,
        416,
        864,
        416,
        700
      ],
      "y": [
        0,
        373,
        0,
        277,
        277,
        561,
        561
      ],
      "w": [
        416,
        416,
        603,
        448,
        206,
        284,
        284
      ],
      "h": [
        373,
        373,
        277,
        182,
        284,
        206,
        206
      ],
      "storage": {
        "sumArea": 200770,
        "w": [
          284,
          362,
          373,
          448,
          603
        ],
        "h": [
          206,
          393,
          416,
          182,
          277
        ],
        "n": [
          1,
          1,
          0,
          0,
          0
        ]
      }
    },
    {
      "W": 1200,
      "H": 800,
      "x": [
        0,
        616,
        877
      ],
      "y": [
        0,
        0,
        0
      ],
      "w": [
        616,
        261,
        261
      ],
      "h": [
        503,
        589,
        589
      ],
      "storage": {
        "sumArea": 340209,
        "w": [
          259,
          261,
          503,
          598,
          675
        ],
        "h": [
          240,
          589,
          616,
          183,
          469
        ],
        "n": [
          3,
          1,
          0,
          0,
          0
        ]
      }
    },
    {
      "W": 1200,
      "H": 800,
      "x": [
        0,
        0,
        307,
        307,
        617,
        617,
        0,
        310,
        705
      ],
      "y": [
        0,
        198,
        0,
        249,
        0,
        249,
        498,
        498,
        498
      ],
      "w": [
        307,
        307,
        310,
        310,
        310,
        310,
        310,
        395,
        395
      ],
      "h": [
        198,
        198,
        249,
        249,
        249,
        249,
        249,
        274,
        274
      ],
      "storage": {
        "sumArea": 228206,
        "w": [
          249,
          274,
          280,
          307,
          943
        ],
        "h": [
          310,
          395,
          316,
          198,
          242
        ],
        "n": [
          0,
          0,
          0,
          0,
          1
        ]
      }
    },
    {
      "W": 1200,
      "H": 800,
      "x": [
        0,
        0,
        0,
        0,
        427,
        427,
        854,
        427,
        427,
        1000
      ],
      "y": [
        0,
        263,
        423,
        583,
        0,
        263,
        0,
        423,
        592,
        263
      ],
      "w": [
        252,
        427,
        427,
        427,
        252,
        427,
        252,
        573,
        573,
        188
      ],
      "h": [
        263,
        160,
        160,
        160,
        263,
        160,
        263,
        169,
        169,
        352
      ],
      "storage": {
        "sumArea": 163013,
        "w": [
          263,
          352,
          427,
          438,
          573
        ],
        "h": [
          252,
          188,
          160,
          522,
          169
        ],
        "n": [
          0,
          1,
          0,
          0,
          1
        ]
      }
    }
  ]
}
