{
  "ObjectType": "ProblemSet",
  "SolvingMethod": "FeatureBased",
  "EvalType": "UnusedStorageArea",
  "Evaluations": [
    0.8509625,
    0.918559375,
    0.9668645833333334,
    0.94388125,
    0.9298854166666667,
    0.933603125,
    0.9741510416666667,
    0.9974114583333333,
    0.9918625,
    0.9322614583333333
  ],
  "Data": [
    {
      "W": 1200,
      "H": 800,
      "storage": {
        "sumArea": 816924,
        "w": [
          240,
          270,
          372,
          398,
          800
        ],
        "h": [
          423,
          477,
          206,
          214,
          282
        ],
        "n": [
          4,
          2,
          2,
          0,
          0
        ]
      }
    },
    {
      "W": 1200,
      "H": 800,
      "storage": {
        "sumArea": 881817,
        "w": [
          250,
          264,
          264,
          336,
          915
        ],
        "h": [
          374,
          219,
          239,
          181,
          171
        ],
        "n": [
          0,
          3,
          2,
          7,
          1
        ]
      }
    },
    {
      "W": 1200,
      "H": 800,
      "storage": {
        "sumArea": 928190,
        "w": [
          258,
          272,
          331,
          450,
          555
        ],
        "h": [
          302,
          588,
          274,
          303,
          180
        ],
        "n": [
          1,
          1,
          2,
          3,
          1
        ]
      }
    },
    {
      "W": 1200,
      "H": 800,
      "storage": {
        "sumArea": 906126,
        "w": [
          279,
          310,
          328,
          428,
          475
        ],
        "h": [
          363,
          297,
          357,
          217,
          340
        ],
        "n": [
          0,
          3,
          3,
          3,
          0
        ]
      }
    },
    {
      "W": 1200,
      "H": 800,
      "storage": {
        "sumArea": 892690,
        "w": [
          255,
          265,
          305,
          306,
          777
        ],
        "h": [
          185,
          354,
          170,
          243,
          218
        ],
        "n": [
          0,
          5,
          1,
          5,
          0
        ]
      }
    },
    {
      "W": 1200,
      "H": 800,
      "storage": {
        "sumArea": 896259,
        "w": [
          240,
          242,
          249,
          283,
          433
        ],
        "h": [
          295,
          163,
          241,
          371,
          259
        ],
        "n": [
          5,
          5,
          4,
          1,
          0
        ]
      }
    },
    {
      "W": 1200,
      "H": 800,
      "storage": {
        "sumArea": 935185,
        "w": [
          284,
          362,
          373,
          448,
          603
        ],
        "h": [
          206,
          393,
          416,
          182,
          277
        ],
        "n": [
          4,
          1,
          2,
          1,
          1
        ]
      }
    },
    {
      "W": 1200,
      "H": 800,
      "storage": {
        "sumArea": 957515,
        "w": [
          259,
          261,
          503,
          598,
          675
        ],
        "h": [
          240,
          589,
          616,
          183,
          469
        ],
        "n": [
          3,
          3,
          1,
          0,
          0
        ]
      }
    },
    {
      "W": 1200,
      "H": 800,
      "storage": {
        "sumArea": 952188,
        "w": [
          249,
          274,
          280,
          307,
          943
        ],
        "h": [
          310,
          395,
          316,
          198,
          242
        ],
        "n": [
          5,
          2,
          0,
          2,
          1
        ]
      }
    },
    {
      "W": 1200,
      "H": 800,
      "storage": {
        "sumArea": 894971,
        "w": [
          263,
          352,
          427,
          438,
          573
        ],
        "h": [
          252,
          188,
          160,
          522,
          169
        ],
        "n": [
          3,
          2,
          4,
          0,
          3
        ]
      }
    }
  ]
}