{
  "ObjectType": "ProblemSet",
  "SolvingMethod": "FeatureBased",
  "EvalType": "UnusedStorageArea",
  "Evaluations": [
    0.9573197916666667,
    0.89013125,
    0.917375,
    0.9069020833333333,
    0.8938625,
    0.9392052083333333,
    0.878971875,
    0.874796875,
    0.9482645833333333,
    0.9317645833333333
  ],
  "Data": [
    {
      "W": 1200,
      "H": 800,
      "storage": {
        "sumArea": 919027,
        "w": [
          249,
          341,
          367,
          446,
          478,
          554,
          578,
          651
        ],
        "h": [
          611,
          367,
          289,
          277,
          260,
          190,
          553,
          257
        ],
        "n": [
          0,
          1,
          0,
          0,
          3,
          4,
          0,
          0
        ]
      }
    },
    {
      "W": 1200,
      "H": 800,
      "storage": {
        "sumArea": 854526,
        "w": [
          248,
          278,
          315,
          367,
          423,
          465,
          518,
          519
        ],
        "h": [
          185,
          253,
          456,
          477,
          470,
          271,
          588,
          221
        ],
        "n": [
          7,
          4,
          0,
          0,
          0,
          2,
          0,
          0
        ]
      }
    },
    {
      "W": 1200,
      "H": 800,
      "storage": {
        "sumArea": 880680,
        "w": [
          272,
          332,
          355,
          446,
          492,
          493,
          521,
          764
        ],
        "h": [
          289,
          218,
          436,
          360,
          221,
          197,
          258,
          533
        ],
        "n": [
          1,
          2,
          0,
          0,
          0,
          4,
          2,
          0
        ]
      }
    },
    {
      "W": 1200,
      "H": 800,
      "storage": {
        "sumArea": 870626,
        "w": [
          256,
          268,
          322,
          375,
          449,
          524,
          570,
          679
        ],
        "h": [
          365,
          500,
          221,
          612,
          257,
          565,
          413,
          195
        ],
        "n": [
          2,
          1,
          1,
          0,
          3,
          0,
          0,
          1
        ]
      }
    },
    {
      "W": 1200,
      "H": 800,
      "storage": {
        "sumArea": 858108,
        "w": [
          377,
          409,
          426,
          519,
          524,
          597,
          757,
          832
        ],
        "h": [
          368,
          288,
          314,
          228,
          363,
          284,
          218,
          215
        ],
        "n": [
          0,
          2,
          2,
          3,
          0,
          0,
          0,
          0
        ]
      }
    },
    {
      "W": 1200,
      "H": 800,
      "storage": {
        "sumArea": 901637,
        "w": [
          260,
          326,
          362,
          427,
          462,
          545,
          627,
          682
        ],
        "h": [
          376,
          194,
          225,
          297,
          214,
          560,
          175,
          197
        ],
        "n": [
          2,
          1,
          0,
          1,
          3,
          0,
          2,
          0
        ]
      }
    },
    {
      "W": 1200,
      "H": 800,
      "storage": {
        "sumArea": 843813,
        "w": [
          243,
          300,
          323,
          429,
          472,
          496,
          513,
          599
        ],
        "h": [
          296,
          295,
          204,
          165,
          296,
          311,
          277,
          241
        ],
        "n": [
          1,
          1,
          5,
          5,
          0,
          0,
          0,
          0
        ]
      }
    },
    {
      "W": 1200,
      "H": 800,
      "storage": {
        "sumArea": 839805,
        "w": [
          242,
          263,
          275,
          384,
          414,
          519,
          768,
          952
        ],
        "h": [
          576,
          185,
          404,
          339,
          242,
          166,
          592,
          164
        ],
        "n": [
          0,
          3,
          3,
          2,
          1,
          0,
          0,
          0
        ]
      }
    },
    {
      "W": 1200,
      "H": 800,
      "storage": {
        "sumArea": 910334,
        "w": [
          248,
          330,
          343,
          377,
          452,
          474,
          797,
          935
        ],
        "h": [
          393,
          423,
          445,
          238,
          203,
          377,
          292,
          235
        ],
        "n": [
          1,
          0,
          0,
          4,
          3,
          1,
          0,
          0
        ]
      }
    },
    {
      "W": 1200,
      "H": 800,
      "storage": {
        "sumArea": 894494,
        "w": [
          279,
          307,
          344,
          360,
          390,
          394,
          627,
          819
        ],
        "h": [
          226,
          326,
          553,
          244,
          165,
          316,
          222,
          286
        ],
        "n": [
          0,
          3,
          0,
          1,
          4,
          2,
          0,
          0
        ]
      }
    }
  ]
}
